1
8
3
3
10
4
11
8
16
4
17
7
21
2
29
7
34
6
34
4
35
1
44
5
52
8
55
7
55
2
58
5
59
6
68
7
74
6
81
8
81
8
87
6
88
1
95
2
100
8
102
6
107
2
109
8
109
7
109
3
115
1
115
3
118
3
123
3
128
5
135
5
138
3
144
7
151
3
158
1
166
3
167
1
169
8
172
3
176
1
177
4
183
7
184
3
186
2
190
1
199
8
200
8
209
7
217
1
217
4
224
7
225
6
234
1
240
5
242
2
247
7
248
7
256
4
261
5
264
1
265
7
270
8
272
1
280
1
283
7
292
2
296
6
297
1
306
2
314
6
323
4
326
5
333
7
335
3
338
8
344
4
348
7
357
3
363
8
363
3
368
4
368
6
373
5
378
4
386
5
391
4
395
7
395
6
399
3
401
6
408
6
411
7
418
5
418
4
421
1
426
3
429
5
431
5
440
3
444
2
449
2
458
6
458
5
467
8
467
1
470
7
473
6
479
5
481
7
487
4
487
7
488
4
490
5
495
5
502
1
502
8
502
7
509
7
509
7
516
3
521
5
525
5
532
2
538
5
539
4
545
7
551
5
558
5
567
2
575
5
577
8
578
8
578
7
579
4
583
1
589
8
589
5
594
2
598
3
602
6
604
8
611
6
618
2
625
5
626
6
631
6
631
2
632
3
634
6
636
6
641
4
647
1
649
1
651
1
660
3
660
3
661
2
664
4
672
7
676
2
683
3
689
1
696
2
700
7
703
3
711
8
712
6
713
6
713
1
714
2
723
2
727
5
729
2
735
1
740
2
747
3
754
8
763
2
768
6
773
5
778
8
782
6
786
3
792
4
794
3
800
6
809
4
817
2
818
4
821
7
825
6
832
7
838
4
847
2
854
1
859
4
868
2
870
6
874
8
876
3
879
2
888
4
888
8
888
4
890
7
890
7
893
3
898
7
904
1
905
5
908
6
910
6
917
4
919
7
928
4
930
5
931
4
931
6
932
4
938
8
947
2
950
5
959
3
965
4
972
5
974
3
981
8
984
1
992
8
1001
1
1008
4
1012
6
1017
2
1019
8
1020
4
1026
3
1029
3
1032
5
1036
6
1038
2
1041
6
1044
3
1045
5
1045
6
1054
5
1055
6
1064
4
1068
8
1068
8
1073
4
1076
1
1085
1
1085
1
1092
7
1095
7
1095
2
1095
1
1099
6
1102
5
1102
2
1104
5
1104
8
1111
6
1117
6
1120
3
1129
5
1136
5
1141
2
1141
8
1144
7
1152
4
1160
1
1166
4
1175
1
1178
4
1183
7
1185
7
1194
2
1200
3
1205
6
1207
1
1210
4
1212
4
1215
7
1220
4
1228
3
1231
5
1238
7
1247
3
1248
5
1253
1
1262
5
1262
1
1265
4
1265
4
1268
1
1274
7
1278
7
1284
2
1284
4
1288
8
1292
2
1295
4
1302
7
1309
8
1314
3
1317
4
1318
3
1322
3
1329
5
1337
1
1337
1
1344
5
1352
1
1359
6
1367
5
1374
5
1378
7
1378
6
1383
7
1388
7
1397
3
1403
3
1412
3
1419
5
1427
8
1435
1
1437
4
1445
2
1454
8
1462
6
1469
1
1472
4
1478
4
1478
3
1486
4
1486
4
1490
5
1496
6
1496
6
1501
3
1503
1
1506
2
1507
4
1510
1
1515
6
1517
1
1518
7
1523
7
1524
5
1529
8
1531
2
1534
8
1535
6
1539
3
1544
1
1552
2
1555
7
1555
6
1563
6
1570
2
1570
8
1572
4
1577
5
1586
7
1586
6
1593
4
1594
4
1601
1
1610
3
1617
8
1620
4
1627
4
1627
7
1636
2
1639
1
1645
3
1649
5
1654
1
1655
8
1661
3
1667
5
1673
6
1680
3
1683
1
1689
4
1692
8
1693
6
1694
7
1698
4
1707
6
1713
5
1716
4
1723
2
1725
4
1730
6
1730
7
1737
7
1739
8
1742
5
1749
4
1750
3
1754
8
1760
5
1764
6
1766
6
1770
6
1772
6
1773
7
1774
7
1783
7
1786
8
1794
2
1802
8
1804
4
1805
2
1808
4
1813
4
1814
8
1816
5
1822
2
1827
6
1836
6
1838
4
1847
5
1848
7
1857
4
1857
5
1865
8
1869
7
1871
2
1879
3
1881
3
1883
7
1887
7
1891
5
1892
2
1892
2
1894
1
1894
7
1895
6
1896
4
1896
8
1905
1
1910
1
1916
7
1924
3
1928
2
1932
4
1932
3
1933
6
1937
7
1943
3
1952
6
1958
6
1959
6
1960
3
1961
8
1967
8
1969
1
1972
8
1975
4
1979
5
1986
6
1995
4
1996
8
1996
5
2002
5
2006
1
2014
5
2023
6
2025
1
2027
4
2028
6
2028
1
2033
6
2038
6
2038
2
2045
7
2047
2
2049
7
2053
4
2059
3
2066
5
2068
5
2076
8
2078
5
2081
1
2086
7
2088
4
2091
8
2091
8
2094
1
2094
8
2100
1
2108
5
2114
6
2117
6
2117
6
2121
6
2126
3
2128
4
2128
2
2134
7
2134
2
2142
6
2144
2
2148
5
2156
6
2157
7
2163
3
2164
1
2168
8
2171
6
2180
7
2189
4
2196
3
2202
4
2206
8
2206
2
2214
7
2221
1
2221
6
2223
3
2227
6
2236
6
2245
4
2247
3
2251
5
2253
7
2261
5
2262
3
2262
7
2264
3
2271
7
2271
6
2274
3
2283
8
2290
7
2293
5
2299
4
2306
7
2310
6
2314
3
2319
2
2320
2
2326
5
2335
8
2335
7
2342
7
2342
1
2342
1
2351
6
2360
3
2365
1
2373
3
2374
3
2381
6
2382
6
2383
7
2392
4
2401
7
2401
6
2407
7
2409
2
2413
6
2414
4
2415
5
2421
6
2429
3
2434
1
2442
2
2451
1
2451
3
2455
1
2456
4
2459
8
2465
3
2471
2
2474
2
2477
5
2486
2
2487
4
2493
5
2495
7
2502
4
2504
1
2504
5
2511
7
2519
2
2528
7
2534
5
2541
1
2547
2
2551
6
2557
6
2563
7
2571
5
2572
7
2572
8
2572
4
2576
3
2579
4
2580
6
2581
5
2582
2
2583
2
2591
4
2596
1
2600
4
2605
4
2610
5
2611
5
2619
8
2626
3
2626
6
2633
6
2636
3
2640
2
2645
8
2646
3
2646
3
2649
8
2657
8
2666
6
2675
6
2675
3
2677
4
2683
1
2691
6
2695
8
2700
2
2705
6
2710
8
2712
6
2720
5
2726
6
2726
5
2731
5
2731
5
2737
4
2741
6
2746
5
2749
5
2752
6
2756
7
2761
7
2770
2
2778
1
2781
5
2789
2
2792
6
2796
4
2802
6
2810
6
2810
1
2811
3
2815
6
2816
6
2818
6
2819
5
2827
6
2829
1
2835
4
2844
1
2844
1
2844
8
2849
1
2855
2
2863
4
2866
1
2873
8
2881
3
2884
5
2892
4
2899
8
2904
3
2904
1
2908
3
2913
7
2917
2
2918
7
2922
8
2924
8
2933
2
2934
3
2935
6
2943
1
2949
6
2951
3
2958
6
2959
3
2967
3
2969
7
2977
2
2984
7
2985
5
2993
5
2996
8
2999
4
3003
6
3012
6
3015
7
3024
4
3033
3
3034
1
3038
1
3038
3
3045
1
3046
4
3050
6
3050
2
3050
6
3056
4
3064
5
3064
2
3068
8
3077
6
3083
6
3091
3
3100
4
3101
4
3109
3
3113
7
3114
3
3116
1
3124
5
3129
6
3133
1
3134
5
3140
1
3146
5
3152
1
3153
7
3154
3
3158
6
3166
5
3170
4
3172
6
3180
6
3186
1
3186
5
3187
6
3192
8
3199
8
3206
2
3207
5
3209
1
3213
6
3221
8
3224
6
3225
6
3226
4
3231
6
3235
7
3238
4
3239
5
3248
3
3256
3
3263
7
3265
8
3274
7
3279
3
3284
7
3288
1
3295
2
3298
6
3306
6
3311
5
3314
5
3316
4
3316
6
3323
6
3330
1
3331
1
3339
5
3348
1
3350
6
3356
1
3359
2
3360
2
3365
6
3365
6
3371
6
3379
8
3383
7
3388
2
3388
1
3395
1
3402
1
3405
1
3414
5
3419
1
3424
5
3430
4
3437
1
3442
3
3447
6
3447
3
3456
5
3459
7
3461
3
3468
1
3468
2
3474
7
3476
2
3480
5
3483
6
3487
8
3492
7
3495
4
3503
8
3505
3
3509
6
3515
7
3521
4
3529
2
3538
8
3545
8
3545
5
3547
7
3550
4
3551
5
3558
1
3558
6
3561
1
3566
6
3568
8
3569
8
3573
1
3576
1
3579
4
3581
3
3588
4
3588
6
3597
5
3605
8
3614
4
3623
3
3628
5
3637
7
3638
4
3644
4
3645
4
3648
7
3652
1
3658
2
3658
4
3667
1
3676
5
3685
3
3690
2
3697
4
3706
8
3712
6
3712
7
3712
5
3721
8
3721
4
3724
2
3731
7
3733
1
3734
7
3734
2
3736
4
3736
6
3742
4
3747
5
3751
6
3757
1
3765
8
3773
4
3782
8
3784
1
3785
6
3786
6
3792
6
3792
5
3795
2
3800
4
3806
5
3810
5
3813
5
3815
4
3820
2
3827
6
3832
8
3834
5
3834
8
3834
8
3842
5
3851
2
3860
2
3866
6
3874
1
3880
6
3889
6
3895
2
3904
7
3907
3
3915
2
3916
6
3922
5
3924
3
3925
8
3925
4
3931
4
3936
3
3944
1
3949
6
3952
3
3952
6
3957
8
3962
4
3968
1
3970
6
3979
1
3988
6
3993
4
3997
4
4001
3
4004
6
4009
2
4012
4
4020
4
4029
1
4037
3
4039
1
4043
7
4047
3
4048
6
4048
1
4048
5
4048
4
4054
4
4059
6
4067
1
4067
7
4068
8
4072
8
4073
4
4082
3
4085
4
4089
8
4096
5
4104
6
4107
8
4111
1
4111
2
4116
4
4123
7
4123
1
4123
6
4127
5
4135
2
4139
1
4144
4
4146
4
4150
1
4151
1
4152
5
4155
1
4156
6
4160
4
4163
6
4165
6
4174
4
4179
4
4187
7
4187
7
4191
3
4199
8
4206
4
4206
6
4209
8
4214
8
4214
1
4214
3
4220
6
4229
3
4234
4
4238
8
4240
4
4248
2
4255
1
4256
7
4265
7
4271
5
4272
6
4273
4
4282
5
4288
2
4294
3
4303
7
4305
8
4312
2
4320
4
4329
3
4330
4
4334
5
4343
4
4350
8
4355
3
4364
4
4365
1
4373
5
4375
6
4375
6
4375
8
4378
7
4382
7
4387
7
4393
6
4397
3
4403
5
4410
1
4411
4
4413
4
4420
6
4421
1
4423
6
4426
1
4430
7
4436
3
4437
1
4444
6
4446
7
4454
4
4462
3
4468
4
4474
3
4475
1
4484
5
4485
4
4485
7
4493
4
4502
1
4504
7
4511
4
4519
7
4528
3
4537
2
4542
8
4550
7
4556
2
4560
8
4560
5
4561
8
4564
8
4569
2
4574
3
4579
2
4580
1
4589
8
4590
7
4596
3
4599
2
4607
6
4615
2
4618
1
4624
4
4627
5
4629
8
4633
1
4639
8
4642
8
4648
5
4652
8
4656
8
4663
6
4670
1
4679
2
4684
1
4692
3
4694
7
4697
2
4704
2
4710
8
4719
7
4726
7
4733
6
4733
2
4737
8
4739
4
4740
7
4741
1
4750
1
4759
4
4759
7
4763
3
4768
3
4768
8
4772
2
4776
3
4778
5
4783
3
4790
4
4791
4
4792
5
4795
6
4802
2
4807
3
4814
5
4820
6
4827
8
4833
4
4833
5
4836
8
4843
6
4851
2
4859
3
4866
3
4874
3
4874
2
4879
4
4885
3
4894
6
4903
7
4906
7
4911
1
4915
1
4921
5
4924
3
4933
3
4934
8
4941
5
4945
4
4946
8
4952
1
4958
7
4963
4
4969
7
4973
8
4979
5
4988
6
4989
4
4991
8
4999
5
5003
7
5008
3
5008
8
5014
6
5016
4
5017
5
5022
1
5030
3
5031
4
5034
3
5042
7
5047
4
5053
4
5060
4
5067
5
5072
4
5080
5
5081
2
5083
4
5091
8
5095
5
5104
6
5105
6
5114
1
5120
8
5120
3
5122
2
5123
6
5125
3
5127
6
5128
4
5132
4
5135
1
5135
1
5139
5
5147
2
5152
7
5160
6
5163
2
5165
2
5168
5
5171
8
5177
5
5178
7
5180
1
5180
5
5180
4
5188
7
5196
7
5205
4
5212
2
5219
2
5228
2
5232
3
5236
3
5240
2
5243
1
5244
4
5253
7
5255
1
5264
8
5268
4
5274
7
5283
3
5284
1
5288
5
5289
8
5295
4
5297
5
5306
7
5306
2
5306
4
5313
6
5322
4
5326
1
5326
5
5329
1
5329
7
5335
8
5340
5
5340
4
5344
3
5347
4
5349
5
5353
4
5356
5
5360
6
5369
5
5374
4
5374
1
5378
6
5382
3
5390
8
5391
3
5393
5
5402
8
5409
2
5416
6
5425
2
5433
1
5442
4
5446
2
5451
6
5459
8
5468
2
5475
6
5475
2
5484
8
5484
8
5487
1
5488
7
5491
3
5495
8
5499
4
5501
8
5506
3
5506
6
5509
1
5513
1
5521
7
5530
3
5532
7
5532
1
5534
8
5539
5
5545
3
5547
2
5553
7
5560
6
5564
6
5567
4
5573
1
5573
5
5581
1
5587
3
5592
3
5600
5
5604
4
5607
6
5614
8
5617
3
5621
2
5630
3
5632
8
5640
2
5640
1
5649
2
5652
3
5660
8
5667
4
5675
6
5678
2
5680
1
5681
4
5689
8
5695
2
5699
2
5702
8
5705
4
5708
6
5713
4
5716
4
5718
3
5723
1
5723
3
5727
7
5729
6
5735
6
5743
7
5749
3
5755
6
5761
6
5761
1
5768
4
5772
7
5777
6
5780
6
5788
2
5791
6
5795
6
5801
7
5809
5
5816
2
5825
4
5830
7
5839
4
5843
5
5852
8
5861
5
5870
8
5871
6
5876
7
5876
4
5885
7
5887
1
5896
4
5898
1
5901
2
5902
4
5906
8
5914
1
5917
8
5922
2
5923
6
5924
1
5926
1
5929
6
5933
7
5939
1
5942
8
5945
6
5950
4
5959
7
5967
7
5973
2
5980
5
5985
5
5988
2
5988
1
5988
3
5988
5
5991
2
5997
4
6005
3
6010
2
6010
4
6015
2
6015
6
6020
3
6024
2
6027
7
6036
1
6042
1
6051
3
6057
8
6060
6
6062
4
6067
6
6075
8
6078
3
6084
4
6093
5
6096
1
6102
1
6108
6
6113
6
6119
4
6121
1
6123
6
6128
1
6132
6
6140
1
6142
3
6142
3
6145
7
6150
1
6156
8
6162
8
6168
1
6168
8
6174
5
6176
4
6185
8
6186
4
6195
6
6198
4
6207
3
6216
6
6218
4
6221
1
6225
6
6234
3
6238
2
6245
5
6249
8
6250
5
6259
2
6268
6
6270
8
6279
8
6283
5
6286
4
6293
8
6293
5
6293
4
6297
5
6303
6
6309
8
6314
2
6315
5
6321
6
6326
4
6335
6
6342
2
6348
8
6352
2
6352
8
6353
3
6359
6
6361
1
6367
1
6373
8
6373
4
6382
8
6382
4
6386
7
6390
5
6395
6
6401
7
6403
1
6408
1
6414
6
6418
4
6425
5
6430
7
6433
7
6437
3
6445
1
6445
5
6450
1
6457
3
6460
7
6463
4
6463
7
6469
4
6477
1
6477
2
6483
6
6483
4
6492
7
6493
3
6501
4
6504
1
6504
2
6507
1
6515
8
6518
5
6526
4
6535
7
6541
4
6541
8
6542
1
6551
4
6554
7
6560
6
6569
2
6570
5
6571
6
6573
6
6576
7
6585
5
6586
4
6586
1
6587
1
6592
7
6595
1
6597
3
6606
6
6608
2
6610
3
6613
2
6620
3
6624
6
6630
6
6631
8
6637
2
6640
7
6643
2
6647
6
6654
4
6663
8
6669
7
6678
5
6682
5
6687
6
6693
7
6696
2
6696
4
6700
6
6706
1
6712
1
6721
7
6725
1
6732
3
6732
8
6732
4
6739
8
6741
6
6746
6
6755
6
6761
8
6765
5
6770
5
6777
6
6779
5
6781
8
6787
1
6790
4
6792
2
6801
4
6807
3
6815
5
6821
8
6826
1
6829
2
6832
3
6834
8
6839
8
6844
6
6852
3
6861
1
6862
5
6867
3
6872
8
6877
7
6881
6
6884
8
6891
7
6897
6
6898
8
6906
1
6907
3
6915
1
6919
4
6919
8
6924
6
6924
2
6925
5
6927
6
6929
1
6938
3
6938
8
6945
4
6949
2
6949
3
6957
5
6959
5
6967
5
6970
5
6976
2
6983
4
6985
2
6991
2
6997
8
6997
6
7001
2
7009
8
7009
3
7010
7
7017
5
7026
6
7034
5
7040
1
7041
4
7042
6
7046
3
7055
2
7057
2
7061
8
7068
3
7071
7
7071
6
7074
3
7076
5
7085
5
7094
7
7098
7
7098
3
7103
2
7110
6
7112
8
7116
8
7119
3
7119
3
7122
4
7128
3
7132
5
7133
5
7137
5
7143
4
7149
5
7149
3
7149
5
7153
2
7156
4
7156
2
7159
1
7165
2
7168
3
7173
8
7181
8
7190
4
7194
2
7199
2
7201
2
7208
7
7217
8
7220
8
7227
7
7227
1
7227
7
7235
4
7239
4
7242
1
7247
1
7252
6
7257
6
7263
1
7271
7
7275
1
7275
5
7282
3
7289
2
7297
5
7298
1
7301
5
7301
3
7309
1
7318
4
7326
2
7332
2
7339
2
7346
7
7355
7
7364
1
7366
6
7375
6
7383
5
7390
7
7395
8
7402
2
7402
5
7406
3
7409
2
7415
3
7423
1
7428
4
7434
6
7443
5
7450
3
7455
4
7461
3
7469
2
7477
1
7482
4
7482
3
7484
3
7490
2
7494
5
7503
4
7510
5
7510
6
7514
4
7522
7
7526
5
7528
8
7529
5
7533
5
7537
5
7540
4
7545
3
7551
8
7559
8
7561
7
7568
6
7577
1
7580
2
7584
6
7585
3
7587
6
7594
5
7597
5
7606
7
7607
5
7609
4
7618
3
7627
2
7635
5
7639
5
7648
2
7648
8
7651
8
7654
3
7662
7
7670
8
7676
3
7682
8
7688
2
7697
5
7700
3
7707
5
7707
7
7709
7
7715
5
7716
7
7724
4
7732
8
7737
5
7737
4
7743
1
7750
7
7758
6
7762
4
7763
4
7764
4
7767
8
7768
3
7770
8
7775
3
7780
6
7782
5
7784
1
7784
8
7788
5
7791
7
7793
1
7795
2
7804
1
7808
7
7809
3
7811
4
7817
7
7821
8
7828
4
7833
3
7840
2
7841
6
7843
2
7843
5
7846
2
7847
4
7851
1
7858
8
7866
2
7868
3
7869
5
7878
7
7880
4
7887
6
7891
7
7895
5
7899
2
7899
4
7903
3
7904
5
7908
3
7908
7
7915
5
7918
8
7927
1
7932
3
7940
6
7941
7
7950
4
7953
5
7953
2
7956
5
7962
7
7967
5
7970
3
7972
1
7980
2
7982
8
7983
6
7986
3
7994
8
7998
3
8000
5
8002
1
8003
8
8006
2
8006
4
8008
1
8017
5
8023
7
8031
8
8037
1
8037
6
8043
1
8044
5
8051
3
8054
8
8063
4
8064
5
8071
8
8074
7
8076
6
8084
7
8088
6
8089
1
8097
6
8099
2
8105
2
8108
3
8109
6
8115
6
8117
6
8125
3
8125
6
8127
2
8127
6
8134
5
8138
8
8140
4
8146
7
8151
7
8156
5
8157
7
8160
8
8165
4
8169
6
8171
7
8180
1
8184
2
8190
1
8199
3
8208
7
8208
5
8211
7
8211
5
8217
8
8223
2
8230
5
8231
4
8233
3
8233
3
8236
8
8244
6
8251
1
8251
6
8257
3
8264
8
8273
7
8276
7
8276
3
8285
7
8293
1
8300
2
8304
8
8306
2
8313
3
8313
1
8317
6
8326
5
8333
3
8338
4
8340
6
8342
4
8349
6
8351
4
8358
4
8359
8
8363
6
8363
3
8369
6
8373
4
8373
6
8376
8
8385
3
8390
1
8391
2
8398
4
8401
7
8404
4
8412
2
8418
2
8420
5
8426
5
8429
3
8436
2
8436
2
8437
1
8442
8
8443
6
8445
5
8450
6
8451
7
8459
8
8462
3
8468
2
8475
6
8476
6
8477
1
8482
6
8484
5
8488
6
8490
7
8499
7
8506
2
8512
8
8520
6
8525
1
8533
7
8542
5
8542
5
8542
3
8548
7
8548
7
8548
6
8549
6
8551
8
8557
8
8565
5
8574
6
8576
3
8581
1
8586
1
8589
8
8596
7
8597
2
8599
1
8601
6
8601
2
8603
1
8611
3
8611
8
8616
7
8624
5
8624
6
8628
2
8632
2
8635
5
8644
2
8651
8
8659
7
8663
7
8666
8
8672
7
8672
4
8674
8
8682
2
8683
3
8690
1
8692
8
8695
2
8695
7
8697
4
8698
2
8700
6
8707
5
8716
6
8725
2
8726
3
8731
4
8735
2
8741
7
8746
6
8751
1
8752
5
8752
5
8756
5
8763
8
8772
6
8778
6
8784
8
8793
5
8800
3
8801
4
8801
5
8809
8
8811
4
8819
1
8821
8
8825
3
8827
5
8827
3
8831
6
8838
7
8846
4
8853
8
8860
5
8864
7
8870
3
8873
3
8877
8
8881
1
8882
5
8885
1
8887
6
8889
6
8898
8
8905
5
8910
3
8910
8
8918
5
8918
4
8919
4
8919
3
8924
2
8928
5
8931
3
8932
6
8932
3
8936
5
8940
3
8941
5
8947
2
8954
2
8956
8
8959
4
8960
6
8967
6
8973
2
8976
1
8979
7
8988
6
8989
4
8995
1
8997
8
8998
4
9005
5
9009
2
9018
1
9026
6
9034
4
9038
1
9040
4
9042
1
9047
6
9049
8
9058
7
9061
6
9063
5
9067
8
9070
2
9075
5
9078
4
9080
3
9088
3
9091
3
9099
3
9103
3
9103
5
9111
4
9111
8
9113
1
9114
6
9115
1
9122
3
9130
7
9139
3
9143
8
9151
4
9154
1
9160
6
9169
6
9171
7
9173
4
9178
5
9178
1
9186
3
9189
4
9190
1
9190
8
9194
7
9201
3
9205
4
9207
7
9207
3
9214
4
9220
2
9228
1
9235
6
9243
7
9246
8
9249
1
9252
6
9252
4
9260
8
9266
2
9269
1
9270
7
9275
2
9282
8
9285
7
9289
8
9294
5
9303
5
9310
7
9314
1
9317
8
9318
4
9324
3
9332
3
9337
3
9341
7
9343
3
9343
5
9347
6
9350
6
9357
4
9366
8
9367
1
9376
3
9378
6
9378
3
9385
8
9394
7
9394
3
9397
4
9402
2
9403
7
9406
4
9415
2
9422
6
9429
5
9437
8
9441
4
9447
2
9456
5
9458
3
9463
6
9467
1
9472
3
9475
1
9480
2
9482
6
9490
7
9493
8
9501
5
9501
5
9503
5
9509
5
9514
1
9522
4
9525
4
9534
8
9539
6
9543
7
9545
7
9552
8
9557
1
9565
8
9569
7
9577
2
9578
8
9585
8
9592
4
9593
6
9601
5
9607
6
9615
5
9618
2
9622
5
9622
5
9623
3
9627
1
9633
5
9638
2
9644
6
9651
6
9659
6
9665
8
9666
4
9668
5
9671
5
9676
3
9684
1
9684
7
9687
8
9694
5
9696
2
9705
4
9709
8
9711
6
9717
6
9723
5
9723
3
9730
5
9732
4
9740
7
9745
8
9752
2
9757
8
9758
4
9760
5
9769
6
9771
4
9775
1
9781
6
9790
5
9793
3
9802
8
9810
1
9815
7
9824
2
9833
3
9840
4
9841
6
9846
4
9852
7
9860
5
9866
6
9874
6
9874
2
9878
2
9887
8
9896
3
9898
4
9901
2
9906
4
9909
1
9917
8
9920
2
9927
8
9929
1
9930
5
9930
2
9930
1
9939
5
9942
1
9945
7
9949
5
9952
4
9955
8
9959
4
9961
1
9961
6
9969
4
9972
8
9979
1
9988
5
9996
2
9997
3
10002
4
10002
1
10010
2
10018
4
10023
2
10030
3
10033
8
10042
8
10042
8
10042
5
10043
3
10049
8
10053
7
10058
6
10059
3
10061
6
10069
3
10077
4
10083
2
10084
7
10085
5
10088
8
10091
7
10093
4
10098
8
10103
5
10104
1
10112
3
10112
8
10120
8
10126
3
10131
4
10135
1
10142
8
10150
7
10157
5
10160
4
10162
2
10167
1
10169
2
10175
2
10178
3
10180
4
10184
2
10185
3
10191
3
10191
8
10198
6
10207
3
10213
1
10218
4
10227
3
10229
6
10235
3
10235
5
10237
3
10243
8
10249
1
10252
8
10261
3
10267
8
10271
1
10280
8
10281
6
10285
1
10291
6
10293
6
10300
8
10307
3
10310
5
10318
7
10323
7
10326
7
10329
2
10334
1
10341
1
10341
7
10350
3
10350
5
10358
3
10362
4
10366
7
10374
3
10378
5
10381
6
10387
4
10389
4
10396
4
10402
4
10407
7
10407
3
10414
2
10423
5
10428
1
10434
2
10435
4
10439
8
10440
6
10449
1
10454
1
10458
1
10461
6
10470
2
10475
3
10482
3
10491
4
10496
6
10504
2
10505
6
10507
1
10508
7
10514
3
10519
4
10523
6
10527
2
10529
7
10535
3
10540
5
10547
4
10554
6
10557
6
10561
6
10561
7
10563
2
10566
3
10567
1
10573
7
10580
7
10587
4
10590
5
10593
7
10601
1
10601
6
10606
5
10610
5
10611
1
10615
6
10617
1
10623
8
10626
1
10627
6
10630
7
10635
1
10639
7
10642
3
10645
7
10646
3
10650
2
10650
7
10654
4
10659
7
10668
1
10672
2
10674
1
10675
6
10675
8
10678
4
10685
4
10687
8
10692
5
10695
1
10702
5
10703
6
10711
5
10719
7
10722
7
10728
5
10728
8
10728
3
10731
4
10738
6
10741
1
10749
1
10752
2
10758
5
10767
4
10775
3
10780
6
10788
2
10797
3
10806
2
10807
7
10814
1
10817
6
10824
7
10828
5
10832
4
10839
8
10842
5
10845
1
10852
7
10859
3
10859
8
10860
5
10860
1
10863
2
10865
2
10872
6
10877
2
10877
5
10883
3
10884
4
10888
8
10894
8
10901
3
10903
5
10904
3
10904
3
10909
4
10910
8
10911
3
10918
1
10926
6
10928
6
10933
1
10935
3
10935
7
10943
4
10943
2
10947
1
10955
3
10964
1
10970
5
10976
1
10981
5
10990
5
10992
8
10998
3
11001
1
11003
1
11010
4
11011
2
11020
3
11027
5
11030
5
11038
7
11044
4
11044
3
11049
8
11053
4
11056
7
11059
4
11060
8
11062
2
11064
4
11073
5
11081
2
11088
3
11093
7
11101
6
11104
2
11108
3
11114
4
11115
1
11116
3
11123
1
11128
3
11135
7
11135
2
11142
4
11142
1
11146
1
11153
5
11155
6
11159
4
11168
2
11176
6
11177
8
11186
5
11193
3
11198
5
11207
5
11209
4
11215
1
11216
5
11220
8
11227
8
11230
3
11233
5
11239
6
11239
1
11244
3
11245
7
11250
3
11259
5
11262
1
11267
2
11275
2
11280
5
11285
1
11287
1
11295
6
11295
7
11303
5
11307
2
11315
8
11321
1
11329
2
11337
3
11339
4
11340
6
11347
3
11354
3
11361
2
11363
5
11366
7
11367
2
11367
3
11376
6
11382
3
11382
2
11383
3
11387
6
11391
6
11398
4
11403
2
11405
2
11407
1
11410
5
11410
7
11414
4
11423
8
11428
4
11432
8
11437
7
11443
3
11452
6
11456
4
11457
3
11459
4
11467
4
11475
1
11480
2
11480
5
11484
6
11486
4
11493
2
11496
5
11498
7
11504
5
11505
5
11510
2
11519
8
11527
4
11531
3
11531
8
11535
8
11540
5
11540
7
11549
3
11555
2
11558
1
11563
3
11570
8
11578
6
11580
2
11581
7
11584
6
11586
5
11591
3
11595
4
11602
6
11610
3
11616
8
11624
3
11626
4
11631
6
11634
3
11634
2
11638
2
11645
2
11653
4
11662
3
11669
6
11678
5
11687
2
11687
7
11693
5
11702
7
11706
6
11708
1
11711
2
11714
5
11716
7
11722
5
11727
6
11729
2
11737
8
11739
2
11741
1
11742
4
11745
4
11746
1
11753
7
11754
4
11757
2
11763
7
11765
5
11765
1
11767
1
11771
4
11772
6
11777
4
11783
2
11784
3
11791
2
11794
5
11802
5
11809
8
11817
1
11818
6
11823
1
11827
3
11835
2
11838
3
11839
2
11843
2
11849
5
11849
1
11852
3
11852
8
11859
6
11859
4
11867
8
11870
1
11874
4
11881
5
11883
3
11888
4
11893
5
11895
4
11902
4
11908
1
11914
3
11923
3
11923
3
11931
3
11937
3
11937
4
11946
7
11947
4
11950
3
11950
6
11953
7
11953
3
11959
7
11967
1
11970
6
11974
7
11974
3
11983
7
11983
3
11985
8
11992
5
11994
6
12001
7
12001
8
12007
7
12010
5
12017
3
12026
8
12027
1
12029
2
12031
2
12036
6
12040
2
12048
7
12056
4
12064
4
12066
2
12068
6
12075
6
12080
4
12080
4
12081
7
12087
2
12093
8
12099
2
12107
5
12114
8
12119
3
12123
8
12131
8
12136
7
12142
6
12144
1
12149
1
12157
4
12161
6
12162
5
12162
8
12163
4
12166
7
12169
7
12178
8
12178
6
12178
1
12186
2
12193
6
12198
3
12205
1
12205
4
12209
5
12210
3
12217
5
12218
8
12223
7
12224
4
12229
6
12235
6
12235
6
12238
3
12246
4
12252
7
12253
6
12258
2
12260
8
12267
3
12273
7
12276
2
12284
4
12293
5
12297
3
12303
5
12305
2
12306
8
12310
4
12311
6
12312
6
12313
1
12318
4
12326
5
12334
2
12336
5
12345
2
12350
7
12359
8
12365
7
12372
5
12376
2
12383
5
12386
6
12389
1
12396
8
12397
6
12403
2
12405
8
12412
7
12414
3
12418
4
12425
4
12428
2
12430
5
12434
5
12441
8
12448
6
12454
1
12462
6
12471
2
12477
3
12484
5
12487
8
12487
2
12490
5
12490
3
12492
5
12496
3
12502
8
12508
3
12513
4
12518
3
12523
2
12532
6
12533
3
12539
2
12544
4
12550
8
12556
8
12561
8
12566
3
12574
6
12581
2
12590
4
12597
1
12601
4
12603
1
12609
6
12613
8
12618
2
12620
6
12629
1
12630
1
12636
5
12637
4
12643
1
12646
4
12649
7
12649
3
12656
2
12664
7
12665
2
12671
3
12671
5
12677
1
12685
5
12686
7
12689
8
12689
7
12696
8
12697
8
12698
3
12698
4
12700
6
12704
3
12711
7
12711
1
12714
5
12717
7
12726
3
12733
3
12739
1
12739
4
12740
7
12743
1
12749
5
12753
1
12761
5
12769
4
12774
8
12776
8
12778
6
12784
7
12792
3
12798
3
12802
2
12804
4
12810
1
12812
8
12821
7
12823
8
12832
8
12837
2
12843
5
12846
1
12847
3
12855
4
12863
1
12865
6
12869
7
12874
4
12883
8
12892
6
12892
8
12901
5
12903
6
12904
3
12908
5
12915
6
12915
8
12918
7
12921
3
12925
3
12929
5
12934
8
12943
4
12948
4
12949
3
12955
4
12964
8
12968
5
12972
8
12973
3
12977
7
12983
4
12991
6
12991
2
12994
7
13001
4
13003
8
13010
6
13015
3
13021
1
13025
6
13034
8
13036
7
13038
1
13043
8
13051
7
13054
6
13057
3
13064
1
13072
8
13074
4
13079
2
13088
4
13092
7
13092
2
13093
1
13096
5
13102
1
13108
6
13110
1
13112
2
13121
5
13122
8
13130
1
13135
7
13138
2
13139
1
13141
1
13148
3
13155
8
13159
5
13161
5
13169
3
13175
3
13175
6
13180
1
13182
8
13189
3
13198
5
13201
6
13203
6
13209
7
13215
1
13220
5
13229
5
13237
8
13244
1
13247
2
13256
7
13258
5
13262
8
13268
2
13269
3
13271
6
13274
7
13279
2
13287
5
13291
5
13298
4
13299
3
13305
7
13306
6
13311
4
13311
6
13315
5
13324
5
13331
8
13333
5
13337
8
13342
6
13350
6
13356
5
13362
2
13365
7
13365
1
13371
8
13373
6
13378
6
13386
6
13392
2
13398
3
13406
6
13408
4
13412
5
13414
3
13422
5
13423
3
13428
4
13431
8
13436
8
13442
8
13450
7
13459
6
13467
4
13473
6
13474
7
13474
7
13479
8
13480
5
13489
2
13490
7
13495
4
13504
3
13508
7
13512
6
13519
2
13519
3
13526
6
13528
4
13535
6
13537
1
13540
1
13545
4
13545
8
13550
2
13558
2
13566
8
13567
3
13574
4
13580
5
13588
6
13589
2
13597
8
13606
5
13614
2
13614
4
13620
8
13627
1
13634
5
13643
5
13648
5
13654
1
13658
7
13667
4
13671
3
13671
7
13679
8
13687
8
13687
5
13692
8
13699
3
13702
1
13705
8
13711
4
13713
6
13716
6
13718
2
13726
7
13729
8
13736
6
13738
7
13747
4
13755
4
13759
7
13760
3
13769
1
13775
5
13775
3
13780
5
13784
8
13784
7
13786
4
13786
4
13788
2
13789
4
13794
2
13803
1
13809
2
13815
6
13819
3
13819
6
13828
5
13828
1
13830
4
13838
2
13843
5
13851
3
13853
3
13859
5
13864
4
13871
6
13878
2
13882
7
13891
7
13897
2
13903
6
13911
4
13920
1
13928
3
13932
7
13936
2
13944
1
13947
4
13953
1
13957
3
13962
3
13964
6
13964
6
13968
3
13974
5
13978
2
13984
4
13986
8
13994
8
14001
2
14003
8
14011
7
14016
6
14022
8
14027
8
14028
4
14031
6
14035
5
14044
5
14051
4
14054
4
14061
5
14062
4
14068
7
14073
8
14080
7
14089
7
14097
4
14098
3
14107
3
14108
1
14114
2
14118
3
14126
2
14129
5
14131
5
14139
8
14147
7
14156
7
14157
8
14157
2
14161
1
14166
2
14167
1
14170
4
14177
2
14180
3
14183
4
14185
6
14188
5
14189
5
14193
2
14197
6
14206
7
14207
2
14214
7
14215
3
14219
1
14227
5
14236
2
14240
3
14248
4
14249
3
14258
5
14264
7
14270
1
14274
2
14281
5
14284
2
14287
1
14290
5
14295
6
14299
7
14306
4
14312
2
14320
3
14321
7
14330
6
14332
8
14340
5
14344
8
14350
6
14356
4
14363
4
14371
7
14377
6
14379
3
14384
7
14391
4
14396
8
14396
5
14399
6
14408
7
14417
3
14424
8
14426
4
14429
1
14435
3
14440
5
14447
6
14450
2
14455
7
14464
8
14472
7
14472
1
14477
6
14486
6
14492
6
14494
7
14496
2
14502
8
14504
7
14506
7
14506
7
14510
2
14517
7
14519
1
14522
3
14522
4
14531
1
14534
2
14542
1
14551
5
14559
3
14561
1
14570
3
14575
4
14579
1
14579
6
14582
8
14586
3
14590
2
14593
1
14597
1
14601
7
14609
6
14615
2
14622
5
14629
1
14631
6
14637
4
14643
5
14645
5
14649
6
14657
5
14665
2
14666
6
14675
4
14679
2
14679
7
14679
6
14688
2
14694
1
14700
3
14703
1
14707
4
14712
4
14713
6
14718
4
14718
2
14718
1
14722
3
14728
3
14737
4
14744
4
14745
2
14753
1
14760
6
14765
6
14771
5
14771
5
14775
1
14781
7
14788
8
14790
7
14797
2
14803
5
14808
4
14817
3
14821
1
14828
6
14834
5
14834
4
14834
4
14836
3
14841
5
14849
1
14856
7
14856
5
14856
1
14858
2
14863
3
14865
7
14871
1
14873
4
14875
1
14884
7
14887
2
14893
7
14900
3
14909
8
14913
1
14916
2
14924
1
14933
5
14939
2
14942
8
14951
7
14954
3
14960
4
14968
7
14968
6
14970
7
14971
5
14974
5
14978
8
14982
3
14988
4
14994
5
14996
8
14999
6
15000
1
15006
5
15011
7
15014
6
15019
5
15021
8
15030
3
15034
4
15034
8
15041
5
15044
3
15052
6
15053
5
15057
4
15060
4
15062
6
15063
5
15063
5
15069
6
15071
8
15079
8
15082
3
15086
3
15087
1
15089
2
15091
5
15091
4
15094
3
15102
2
15109
2
15112
7
15118
7
15122
1
15126
5
15134
6
15141
2
15149
5
15153
4
15157
2
15160
2
15163
4
15167
4
15170
1
15178
4
15183
2
15184
6
15185
2
15191
3
15200
6
15201
8
15204
2
15209
3
15218
1
15227
8
15231
2
15238
2
15240
1
15244
7
15245
1
15247
5
15248
1
15254
3
15260
6
15262
6
15265
5
15271
1
15275
4
15281
3
15286
5
15291
5
15295
7
15302
7
15308
3
15310
8
15319
6
15323
7
15332
5
15337
2
15342
3
15342
6
15343
4
15346
5
15349
5
15355
7
15359
4
15367
1
15373
6
15377
5
15377
2
15377
8
15381
3
15385
8
15388
5
15389
3
15391
5
15397
8
15405
8
15405
3
15409
8
15418
4
15425
3
15429
5
15430
3
15433
2
15440
8
15446
4
15455
6
15461
6
15461
7
15470
6
15478
4
15484
8
15492
1
15493
7
15494
2
15501
5
15504
3
15513
3
15521
3
15526
2
15535
2
15544
3
15550
3
15555
7
15556
4
15565
2
15569
8
15573
2
15573
2
15575
6
15581
6
15590
5
15591
4
15597
6
15599
7
15605
7
15607
6
15616
8
15625
4
15633
1
15642
8
15642
2
15645
2
15645
7
15647
7
15655
7
15661
4
15662
1
15671
7
15675
6
15678
4
15686
6
15687
5
15696
7
15705
6
15712
2
15719
4
15724
3
15726
3
15733
5
15735
3
15739
3
15745
8
15752
7
15755
1
15763
2
15768
4
15769
3
15777
6
15781
5
15785
6
15788
1
15797
6
15797
1
15802
4
15811
4
15817
6
15823
2
15825
5
15827
2
15830
5
15832
5
15837
2
15843
1
15852
6
15859
4
15866
4
15867
7
15874
8
15879
5
15888
7
15894
8
15901
2
15903
2
15909
5
15914
6
15917
8
15922
8
15928
5
15931
5
15933
2
15937
2
15940
4
15944
2
15953
2
15953
6
15961
7
15962
4
15965
6
15974
2
15975
2
15976
3
15979
6
15988
8
15991
1
16000
2
16008
6
16017
3
16025
6
16030
8
16031
1
16034
6
16038
8
16041
5
16046
6
16053
5
16059
3
16066
1
16070
6
16070
8
16075
7
16075
6
16084
6
16093
4
16102
2
16111
3
16119
4
16119
5
16125
1
16134
2
16143
5
16148
7
16156
2
16163
5
16166
7
16173
8
16176
2
16183
5
16191
3
16197
4
16203
5
16206
3
16213
8
16213
3
16214
5
16223
5
16223
3
16223
6
16231
8
16232
7
16235
6
16235
7
16242
4
16244
7
16248
6
16248
3
16249
3
16252
3
16261
4
16265
3
16265
3
16273
8
16276
2
16285
3
16291
3
16296
4
16301
1
16307
3
16316
8
16324
6
16328
2
16337
7
16346
2
16353
3
16357
8
16358
6
16361
4
16369
5
16376
2
16376
8
16384
7
16392
6
16394
5
16399
5
16404
1
16412
2
16420
1
16425
7
16427
5
16429
2
16434
3
16434
1
16441
6
16444
2
16449
2
16457
2
16457
5
16464
2
16468
5
16473
7
16477
7
16481
8
16481
3
16481
2
16488
7
16492
1
16493
3
16502
7
16510
7
16512
5
16519
3
16522
2
16528
7
16537
7
16543
5
16545
1
16550
5
16558
5
16562
3
16570
6
16577
2
16586
5
16589
6
16595
3
16597
5
16601
4
16602
2
16607
5
16609
6
16615
3
16615
2
16620
2
16624
5
16625
4
16631
5
16635
4
16642
3
16643
1
16650
4
16650
2
16657
7
16665
7
16672
8
16672
6
16677
8
16679
1
16682
8
16689
7
16696
6
16699
4
16701
8
16703
6
16706
7
16711
4
16719
1
16723
2
16723
2
16727
5
16734
6
16737
5
16740
6
16745
2
16752
1
16754
7
16755
2
16756
2
16764
3
16768
7
16771
1
16773
1
16777
7
16781
8
16781
2
16784
5
16785
7
16793
2
16795
3
16798
2
16798
3
16798
8
16798
2
16801
4
16808
5
16816
1
16819
4
16827
1
16829
1
16838
4
16841
4
16843
4
16846
3
16849
1
16853
2
16856
1
16863
8
16864
6
16865
7
16869
6
16877
6
16880
5
16883
1
16891
8
16895
2
16900
5
16909
8
16917
2
16918
6
16927
1
16931
5
16940
4
16941
2
16947
2
16950
1
16957
8
16960
3
16969
3
16977
1
16986
5
16994
4
16997
5
17006
1
17015
2
17016
3
17016
5
17024
4
17024
4
17033
4
17039
4
17045
6
17045
8
17052
6
17059
2
17064
1
17071
1
17077
4
17078
1
17087
1
17089
6
17097
2
17102
4
17109
2
17111
5
17115
5
17118
6
17118
5
17125
6
17134
7
17141
3
17141
5
17149
3
17152
7
17153
7
17159
6
17163
4
17167
3
17171
6
17177
8
17180
3
17187
4
17195
7
17203
6
17207
3
17210
3
17213
8
17214
7
17217
5
17218
3
17224
8
17224
5
17225
7
17225
4
17230
3
17230
2
17232
1
17238
4
17244
4
17248
7
17255
4
17255
4
17255
8
17256
2
17258
7
17263
4
17270
7
17277
3
17283
4
17284
8
17284
1
17286
8
17288
2
17293
8
17298
6
17303
7
17312
7
17318
4
17320
4
17328
8
17329
6
17331
7
17338
8
17344
4
17347
5
17353
1
17362
2
17370
4
17377
2
17378
6
17381
6
17389
7
17396
4
17405
3
17413
8
17416
4
17422
2
17429
7
17435
8
17443
3
17449
8
17455
6
17460
8
17461
6
17461
1
17464
7
17472
2
17478
8
17483
1
17483
1
17483
8
17488
8
17491
8
17499
4
17502
7
17507
1
17510
2
17514
2
17521
4
17526
2
17531
1
17540
3
17549
4
17553
5
17561
5
17562
4
17567
3
17569
2
17575
2
17576
2
17584
4
17586
5
17586
4
17589
4
17591
3
17595
8
17601
7
17606
6
17611
1
17620
8
17628
8
17631
3
17634
8
17641
8
17641
1
17648
3
17653
5
17662
2
17668
5
17671
5
17671
2
17672
6
17681
6
17682
2
17685
6
17692
2
17698
6
17698
5
17701
6
17710
5
17718
2
17723
5
17732
7
17735
8
17736
6
17744
4
17749
2
17749
8
17754
4
17762
4
17771
8
17779
3
17788
4
17796
5
17802
1
17804
8
17809
7
17811
2
17815
8
17815
1
17821
4
17826
2
17832
5
17834
3
17834
3
17841
7
17843
4
17852
4
17852
2
17857
8
17864
5
17869
2
17870
3
17876
7
17877
2
17880
3
17883
4
17892
6
17897
1
17898
4
17900
6
17904
4
17907
8
17914
8
17918
2
17920
5
17922
3
17923
3
17927
8
17927
3
17928
7
17932
1
17938
7
17941
2
17943
5
17945
5
17954
6
17961
8
17963
8
17967
6
17973
2
17979
5
17979
7
17979
2
17980
5
17983
1
17989
5
17992
1
17999
2
18002
8
18010
2
18016
8
18023
3
18025
8
18033
3
18035
2
18037
6
18045
8
18053
2
18061
8
18065
5
18065
8
18069
5
18078
8
18082
3
18085
8
18094
5
18101
1
18104
8
18112
1
18115
7
18121
5
18127
1
18127
2
18132
4
18138
4
18142
7
18144
7
18150
4
18150
7
18155
1
18164
3
18168
4
18169
3
18171
1
18175
6
18181
4
18184
4
18189
2
18189
4
18198
5
18198
6
18206
6
18209
4
18218
5
18223
1
18224
2
18224
4
18230
5
18237
2
18240
4
18249
5
18258
5
18266
1
18275
3
18276
6
18285
3
18291
1
18298
3
18299
6
18306
2
18315
4
18317
5
18324
7
18327
2
18332
1
18338
6
18340
1
18346
7
18355
6
18362
7
18368
5
18370
6
18373
7
18381
4
18384
5
18392
7
18394
6
18394
1
18403
3
18407
5
18410
4
18416
1
18424
6
18431
2
18437
8
18446
6
18452
5
18453
8
18453
2
18458
4
18458
2
18464
8
18467
7
18469
6
18469
6
18476
7
18476
6
18476
7
18480
4
18489
4
18498
8
18501
6
18507
1
18507
4
18514
3
18520
5
18525
4
18534
3
18540
7
18543
3
18549
4
18554
4
18561
4
18568
6
18571
6
18573
6
18577
7
18577
3
18584
7
18589
3
18598
1
18598
2
18603
6
18607
7
18613
1
18622
7
18631
6
18631
6
18639
4
18644
5
18651
8
18653
1
18659
5
18668
4
18673
6
18673
3
18673
6
18681
2
18681
6
18690
2
18693
7
18699
7
18704
5
18711
5
18720
1
18724
4
18732
4
18737
2
18746
5
18753
8
18756
6
18756
3
18759
4
18767
2
18776
1
18784
6
18791
7
18793
6
18796
6
18803
1
18810
6
18815
5
18815
2
18816
4
18822
7
18825
8
18834
3
18841
1
18843
4
18846
4
18848
6
18853
5
18862
5
18869
2
18870
3
18873
2
18878
3
18886
6
18891
5
18893
8
18893
8
18896
5
18896
8
18897
1
18898
4
18904
4
18912
7
18919
5
18919
6
18925
1
18927
6
18934
7
18939
6
18941
3
18943
4
18951
1
18956
8
18960
6
18961
7
18966
5
18971
2
18972
8
18975
5
18981
5
18985
4
18993
5
18993
4
18998
4
19005
5
19011
2
19014
7
19023
7
19030
5
19030
7
19037
8
19040
4
19044
5
19053
6
19062
5
19062
6
19067
4
19068
4
19075
1
19080
4
19080
4
19085
6
19085
4
19092
5
19097
4
19100
4
19107
6
19108
6
19115
1
19124
7
19131
4
19140
1
19149
3
19153
3
19159
3
19162
4
19167
1
19170
7
19170
5
19173
2
19176
3
19179
5
19179
8
19183
6
19188
2
19196
6
19199
7
19205
4
19209
5
19210
2
19210
7
19214
3
19217
1
19225
7
19230
1
19239
4
19246
5
19249
8
19249
1
19252
2
19260
4
19261
7
19262
5
19269
2
19272
3
19279
3
19282
1
19291
5
19293
8
19299
3
19303
4
19304
2
19304
1
19307
5
19308
8
19315
7
19320
5
19326
8
19327
5
19333
4
19342
8
19343
6
19349
5
19355
4
19364
6
19367
4
19372
6
19373
3
19382
5
19389
4
19394
7
19395
6
19397
2
19404
4
19409
8
19410
8
19411
5
19413
3
19413
1
19420
7
19424
2
19427
5
19430
4
19437
5
19443
1
19451
6
19454
7
19463
8
19469
8
19476
3
19479
4
19480
3
19481
3
19484
1
19488
8
19494
7
19498
4
19503
6
19510
8
19519
6
19521
8
19523
6
19523
7
19527
4
19527
6
19529
2
19538
4
19541
8
19549
5
19558
2
19564
5
19566
6
19571
7
19575
4
19577
1
19582
4
19590
1
19599
2
19608
4
19609
5
19618
5
19623
1
19628
8
19630
5
19633
8
19637
5
19637
7
19645
5
19648
6
19656
2
19662
7
19667
4
19671
5
19672
4
19677
5
19679
7
19682
7
19690
3
19697
4
19700
5
19708
3
19708
1
19709
1
19715
8
19715
4
19715
8
19720
6
19727
4
19728
3
19736
2
19744
7
19749
8
19754
4
19760
6
19760
6
19766
8
19772
4
19779
1
19779
4
19785
4
19787
6
19788
1
19788
5
19797
1
19799
3
19799
3
19807
6
19811
8
19819
2
19819
2
19821
4
19830
6
19832
7
19838
4
19841
7
19849
3
19853
5
19861
7
19862
3
19864
7
19872
5
19874
2
19880
1
19884
5
19884
7
19885
6
19885
6
19893
2
19893
6
19902
7
19907
3
19912
2
19919
1
19919
6
19920
3
19926
3
19926
8
19927
7
19931
8
19931
3
19933
3
19934
8
19943
3
19944
5
19950
3
19958
8
19961
1
19970
8
19972
5
19973
3
19975
3
19983
4
19989
5
19996
3
20003
5
20012
8
20016
1
20021
6
20030
4
20031
1
20031
3
20040
1
20043
3
20052
7
20056
5
20062
6
20064
8
20065
3
20069
6
20075
5
20083
2
20085
7
20089
5
20089
2
20089
1
20096
7
20099
5
20104
4
20112
8
20114
5
20121
6
20121
4
20126
7
20135
6
20141
5
20147
6
20156
4
20165
5
20168
2
20169
5
20171
2
20176
7
20178
4
20180
8
20180
3
20182
3
20189
4
20198
7
20204
3
20204
5
20210
1
20212
7
20216
4
20222
2
20225
8
20234
5
20238
4
20243
6
20250
5
20250
3
20255
8
20264
8
20271
3
20278
5
20282
7
20291
6
20294
7
20298
6
20300
6
20307
4
20314
6
20316
6
20323
4
20325
4
20329
5
20331
4
20331
2
20332
6
20332
2
20339
6
20348
1
20352
8
20360
5
20368
4
20373
5
20377
8
20382
8
20391
4
20396
5
20403
5
20405
5
20408
3
20410
2
20413
2
20419
3
20422
7
20430
6
20435
4
20443
6
20443
6
20451
1
20454
6
20461
6
20470
7
20473
7
20477
5
20482
8
20484
4
20486
5
20486
8
20495
6
20497
6
20502
6
20502
7
20502
4
20503
5
20503
2
20511
1
20512
1
20521
6
20524
6
20528
6
20536
5
20541
8
20546
4
20549
1
20549
6
20553
6
20559
3
20559
4
20563
2
20568
4
20571
6
20571
3
20579
7
20585
7
20591
2
20600
5
20605
5
20606
4
20615
3
20618
2
20625
7
20630
1
20637
3
20637
4
20645
1
20646
8
20648
4
20652
5
20654
1
20663
4
20666
3
20674
4
20680
6
20684
4
20688
5
20689
6
20693
1
20702
3
20705
2
20706
1
20711
3
20712
5
20717
5
20721
7
20730
7
20734
8
20735
8
20739
5
20743
8
20744
1
20747
4
20756
1
20756
1
20765
7
20771
5
20774
4
20781
5
20785
6
20790
8
20798
3
20799
2
20801
1
20809
8
20814
3
20815
5
20820
1
20823
3
20826
6
20828
7
20832
1
20837
5
20842
6
20849
6
20857
8
20865
7
20871
4
20880
8
20883
7
20884
8
20887
8
20887
4
20895
1
20904
5
20904
5
20909
3
20912
3
20919
2
20926
4
20933
1
20933
1
20937
4
20946
1
20949
8
20954
8
20963
5
20965
5
20967
8
20976
1
20979
2
20982
7
20983
2
20990
1
20991
5
21000
5
21006
3
21014
6
21015
1
21017
4
21018
6
21018
8
21021
5
21025
7
21028
4
21030
3
21038
3
21040
1
21043
2
21051
4
21051
5
21058
5
21065
8
21071
5
21076
8
21077
1
21077
2
21083
3
21085
4
21087
1
21095
4
21100
7
21103
2
21112
6
21112
4
21119
1
21121
4
21123
3
21129
5
21138
2
21142
7
21149
6
21150
6
21155
4
21161
8
21167
3
21173
4
21182
4
21187
4
21188
3
21194
8
21201
6
21210
2
21214
5
21223
1
21228
4
21234
5
21239
7
21241
2
21250
3
21259
7
21268
2
21274
4
21283
2
21286
3
21291
4
21298
4
21301
5
21305
7
21311
8
21311
8
21317
6
21322
5
21325
4
21328
2
21331
7
21336
8
21337
6
21346
3
21355
5
21360
1
21360
3
21361
1
21361
5
21367
8
21368
2
21374
6
21383
1
21383
8
21387
8
21387
2
21393
4
21393
4
21400
8
21400
5
21404
4
21404
2
21406
7
21408
7
21409
1
21418
8
21420
7
21425
6
21433
1
21434
7
21434
1
21435
2
21441
4
21441
2
21446
6
21455
8
21459
2
21464
8
21466
6
21470
3
21478
8
21486
7
21491
1
21493
4
21495
3
21504
8
21512
1
21515
2
21524
5
21529
8
21532
8
21538
8
21546
8
21549
2
21557
8
21559
4
21562
4
21571
7
21579
2
21588
1
21590
3
21594
5
21596
1
21605
2
21610
5
21619
7
21628
6
21636
5
21640
4
21645
1
21651
8
21652
1
21659
4
21661
2
21662
8
21668
3
21673
6
21682
5
21682
7
21684
4
21685
1
21694
8
21700
2
21702
5
21710
6
21714
6
21717
3
21719
8
21721
2
21724
5
21730
5
21735
6
21741
1
21744
5
21745
4
21748
4
21753
3
21758
6
21765
1
21768
6
21777
4
21786
2
21794
8
21798
8
21807
2
21808
2
21817
8
21822
2
21823
1
21825
2
21831
1
21834
2
21843
5
21849
3
21857
4
21860
2
21868
4
21868
7
21869
4
21870
1
21875
3
21882
3
21888
6
21889
1
21898
8
21898
8
21903
6
21906
7
21906
4
21913
8
21913
1
21922
8
21924
1
21930
6
21933
5
21934
3
21934
6
21936
6
21939
6
21945
8
21950
6
21957
2
21957
8
21966
7
21972
8
21974
1
21980
3
21989
8
21994
1
22002
7
22007
4
22012
5
22016
7
22022
5
22029
7
22030
8
22033
8
22040
4
22044
7
22052
6
22058
3
22063
3
22068
3
22072
2
22073
3
22080
1
22081
3
22083
7
22086
5
22092
4
22094
3
22100
6
22106
4
22110
7
22115
4
22123
5
22129
4
22135
6
22139
8
22146
5
22150
5
22155
2
22163
6
22165
1
22167
6
22172
2
22176
2
22182
7
22191
4
22192
6
22199
5
22202
8
22209
7
22213
2
22213
5
22222
6
22224
7
22230
1
22237
3
22246
6
22246
6
22249
3
22254
6
22262
1
22267
7
22276
4
22284
5
22284
3
22284
4
22293
7
22298
7
22305
4
22307
4
22314
6
22318
3
22318
5
22324
2
22327
5
22329
5
22335
4
22337
3
22342
5
22345
7
22347
5
22356
7
22365
5
22373
1
22375
1
22378
6
22383
7
22388
6
22397
4
22405
3
22410
6
22416
4
22416
4
22416
3
22416
5
22422
8
22425
2
22431
3
22435
3
22440
6
22449
2
22454
1
22454
8
22455
4
22455
3
22464
4
22464
2
22467
2
22476
8
22480
2
22480
3
22487
2
22492
2
22492
2
22495
5
22504
8
22510
1
22510
8
22516
8
22522
8
22526
2
22529
8
22534
7
22542
8
22549
1
22550
3
22554
3
22554
3
22560
1
22566
6
22574
6
22574
2
22581
2
22590
8
22593
6
22599
4
22607
1
22614
1
22622
1
22624
6
22627
5
22629
2
22635
2
22640
1
22647
7
22654
8
22654
5
22663
8
22670
3
22670
2
22679
2
22681
6
22681
5
22688
3
22689
2
22695
2
22695
2
22696
4
22699
2
22707
4
22712
1
22712
6
22718
3
22720
2
22725
3
22725
4
22725
8
22731
3
22738
7
22744
1
22744
3
22752
8
22753
5
22756
1
22759
3
22760
7
22766
8
22775
3
22775
7
22784
2
22785
1
22789
3
22791
8
22796
4
22803
6
22809
8
22809
5
22818
6
22825
3
22831
5
22837
8
22844
4
22848
3
22848
8
22854
7
22856
6
22862
5
22866
5
22866
1
22873
6
22880
3
22884
4
22885
2
22885
8
22885
8
22885
7
22886
2
22892
4
22896
3
22896
7
22905
6
22905
2
22905
7
22909
6
22916
7
22917
3
22924
5
22924
4
22929
2
22938
5
22938
2
22938
5
22946
1
22947
1
22956
7
22959
1
22963
7
22964
4
22971
1
22971
7
22975
7
22977
3
22986
2
22989
2
22990
1
22996
5
22999
5
23000
6
23005
5
23011
6
23015
1
23018
3
23022
6
23029
5
23035
2
23040
6
23046
4
23055
5
23057
3
23062
5
23067
4
23072
8
23080
2
23080
2
23087
3
23094
2
23099
4
23099
6
23100
6
23107
7
23113
2
23122
2
23131
1
23135
7
23140
8
23147
7
23147
1
23153
5
23155
8
23155
7
23163
7
23168
1
23173
6
23182
4
23186
5
23192
4
23197
5
23198
1
23202
5
23205
8
23211
4
23216
6
23225
2
23226
2
23230
1
23238
2
23241
3
23249
3
23255
3
23259
8
23260
1
23263
3
23263
4
23270
1
23270
7
23275
8
23279
2
23279
3
23280
3
23289
4
23294
1
23303
7
23309
6
23311
5
23318
1
23327
8
23327
4
23336
1
23342
5
23342
5
23343
5
23346
8
23351
7
23358
1
23359
7
23359
1
23359
6
23366
7
23375
1
23381
8
23384
4
23385
4
23385
7
23393
7
23401
3
23405
4
23410
6
23418
2
23427
7
23436
5
23438
1
23443
5
23443
4
23448
6
23456
7
23462
4
23470
5
23477
7
23481
7
23486
6
23494
7
23498
5
23500
2
23506
5
23509
8
23517
5
23524
3
23527
1
23533
6
23542
3
23546
2
23552
7
23552
4
23556
8
23562
2
23565
8
23574
3
23582
5
23585
1
23587
3
23591
6
23593
5
23593
1
23600
5
23608
3
23613
1
23615
6
23624
8
23632
8
23636
8
23638
6
23641
3
23644
5
23648
4
23656
5
23664
5
23673
7
23676
8
23680
3
23680
4
23687
2
23688
8
23689
3
23698
1
23702
5
23707
6
23711
7
23716
8
23725
8
23730
7
23737
4
23746
7
23749
5
23751
7
23751
4
23757
2
23761
6
23766
1
23774
6
23782
8
23787
2
23795
6
23799
7
23801
8
23807
7
23808
1
23811
1
23817
3
23823
6
23830
2
23833
5
23838
5
23842
6
23844
4
23849
6
23851
4
23851
2
23851
6
23853
4
23855
6
23855
7
23862
7
23862
6
23864
1
23870
7
23873
3
23882
8
23883
7
23886
7
23888
4
23892
3
23896
1
23901
7
23907
4
23912
3
23920
7
23926
6
23935
7
23938
4
23940
3
23942
7
23949
4
23958
5
23959
7
23960
4
23962
2
23967
1
23968
7
23974
4
23981
7
23986
5
23989
4
23991
7
23996
5
24003
6
24011
8
24018
6
24019
7
24024
5
24027
3
24028
4
24030
2
24033
3
24037
1
24040
3
24049
1
24058
8
24066
8
24073
7
24079
8
24085
8
24086
2
24093
7
24093
8
24102
8
24104
1
24111
5
24119
2
24120
6
24124
5
24132
4
24140
2
24144
8
24149
3
24155
5
24155
5
24156
6
24165
5
24173
5
24180
6
24181
3
24185
7
24189
8
24198
3
24199
6
24199
7
24203
3
24207
4
24215
1
24217
5
24219
4
24225
5
24229
4
24229
5
24230
2
24234
1
24240
4
24242
3
24248
3
24252
5
24252
3
24261
6
24261
4
24262
3
24267
5
24270
5
24278
1
24285
5
24292
5
24294
4
24302
7
24311
1
24320
3
24320
2
24325
2
24326
4
24333
1
24341
5
24349
3
24357
7
24365
6
24368
5
24368
2
24377
7
24378
1
24379
5
24382
7
24385
8
24388
7
24390
2
24393
4
24402
3
24405
7
24409
3
24415
1
24416
2
24420
5
24422
2
24425
2
24432
5
24434
1
24440
3
24446
8
24451
5
24454
3
24457
5
24464
8
24468
6
24473
2
24473
5
24480
2
24488
2
24491
6
24498
8
24504
6
24511
3
24519
4
24520
1
24529
6
24533
4
24542
7
24546
3
24549
1
24554
6
24563
3
24571
1
24577
7
24582
1
24585
2
24588
5
24594
2
24598
7
24602
2
24603
3
24609
2
24610
6
24616
7
24620
5
24625
6
24633
6
24636
5
24645
3
24653
7
24656
2
24661
8
24666
4
24671
4
24677
5
24685
8
24694
2
24697
5
24699
2
24702
6
24711
8
24718
1
24726
3
24729
2
24730
7
24736
1
24741
7
24747
2
24749
1
24749
1
24750
6
24753
6
24755
6
24759
1
24761
2
24762
5
24766
4
24766
6
24770
3
24776
2
24776
8
24776
7
24776
6
24781
2
24781
6
24781
3
24784
6
24786
4
24786
6
24792
3
24795
8
24795
2
24799
2
24799
3
24804
7
24807
6
24815
4
24823
8
24828
1
24836
6
24845
7
24846
6
24847
2
24855
2
24861
7
24870
7
24872
6
24873
4
24876
2
24880
6
24883
3
24892
4
24900
4
24906
5
24909
2
24917
4
24924
6
24926
1
24928
4
24928
1
24930
2
24932
1
24938
8
24943
5
24950
3
24951
7
24960
2
24962
1
24970
2
24978
5
24981
7
24987
5
24992
3
24998
1
25004
7
25012
8
25021
1
25022
7
25030
4
25030
8
25037
3
25039
4
25047
4
25052
6
25055
7
25059
8
25060
4
25067
8
25074
1
25080
7
25085
1
25090
5
25095
2
25099
6
25104
5
25111
2
25115
6
25120
1
25121
2
25126
8
25126
1
25126
8
25128
4
25133
2
25134
2
25140
1
25143
8
25145
8
25154
4
25158
6
25166
2
25172
6
25175
5
25177
6
25180
3
25180
1
25183
7
25184
5
25185
8
25188
7
25197
6
25198
8
25203
3
25204
5
25206
1
25213
2
25214
4
25214
1
25214
2
25223
8
25226
1
25229
1
25229
2
25232
2
25232
5
25239
3
25239
8
25242
4
25245
5
25251
8
25251
7
25260
8
25268
7
25270
3
25277
4
25286
2
25288
5
25291
5
25292
3
25297
7
25300
3
25303
2
25306
6
25314
5
25320
3
25328
2
25332
8
25332
6
25334
7
25338
7
25343
6
25346
7
25347
1
25347
8
25348
8
25353
5
25359
6
25359
4
25361
8
25366
4
25375
8
25375
6
25383
7
25388
6
25390
3
25399
5
25402
3
25404
3
25407
2
25410
2
25415
3
25423
8
25432
5
25437
7
25443
1
25443
1
25452
8
25453
8
25460
1
25461
7
25463
4
25472
5
25473
4
25482
5
25482
6
25489
5
25497
8
25505
4
25506
5
25508
5
25511
7
25512
8
25512
7
25518
6
25523
3
25526
5
25531
4
25539
2
25544
8
25550
4
25555
8
25557
7
25563
1
25571
7
25579
3
25586
4
25589
2
25595
5
25598
6
25598
5
25603
2
25607
2
25609
6
25610
3
25612
8
25612
8
25620
4
25628
5
25632
8
25637
8
25638
1
25642
6
25643
4
25644
1
25644
7
25647
7
25654
6
25657
6
25666
2
25668
3
25673
5
25673
3
25679
3
25680
2
25685
3
25685
5
25687
2
25689
5
25689
7
25692
7
25695
8
25696
3
25700
6
25700
5
25706
6
25714
5
25722
1
25731
5
25734
7
25739
2
25743
4
25749
7
25753
2
25762
6
25766
4
25766
6
25766
5
25771
5
25779
4
25784
6
25784
5
25784
1
25790
6
25790
2
25795
8
25799
6
25806
8
25807
3
25812
5
25813
3
25820
5
25825
2
25833
5
25834
7
25836
3
25836
1
25836
8
25836
3
25840
4
25841
1
25845
1
25852
2
25861
2
25865
2
25873
3
25881
8
25887
7
25894
1
25900
5
25904
3
25913
2
25920
2
25924
1
25928
1
25930
1
25932
5
25937
3
25940
7
25944
1
25946
3
25947
3
25953
6
25956
3
25958
3
25965
6
25973
8
25980
4
25983
5
25989
4
25993
2
25993
3
26002
5
26002
6
26009
7
26010
5
26012
5
26013
3
26014
8
26016
8
26023
6
26031
6
26031
1
26036
8
26037
3
26038
5
26047
2
26048
4
26051
3
26059
7
26059
1
26063
2
26070
6
26076
6
26078
7
26078
2
26085
5
26089
3
26095
6
26101
1
26110
6
26110
2
26112
3
26112
6
26114
3
26117
7
26117
3
26123
8
26130
8
26133
6
26133
2
26133
5
26136
1
26136
5
26143
3
26146
3
26146
3
26147
3
26149
5
26149
3
26156
5
26163
2
26167
6
26172
5
26178
4
26187
5
26190
6
26193
4
26201
4
26207
2
26210
4
26218
7
26222
7
26227
8
26230
7
26236
6
26241
3
26241
5
26243
4
26250
8
26251
3
26253
3
26257
4
26257
3
26265
6
26274
6
26275
5
26281
5
26289
6
26297
4
26306
5
26311
7
26312
3
26318
2
26326
6
26327
5
26333
8
26340
2
26343
7
26346
3
26346
4
26352
5
26360
2
26360
7
26369
4
26370
8
26375
3
26383
6
26389
2
26389
2
26396
4
26396
6
26405
7
26409
3
26418
3
26423
6
26425
7
26428
2
26435
5
26442
5
26450
5
26456
1
26461
1
26470
4
26477
6
26485
2
26491
4
26499
4
26505
2
26506
5
26506
2
26513
3
26519
1
26528
5
26535
8
26540
4
26544
8
26548
8
26549
4
26555
1
26558
5
26560
6
26569
8
26576
4
26577
2
26585
3
26591
8
26597
1
26604
1
26607
6
26616
1
26618
8
26618
8
26624
6
26629
8
26632
2
26632
5
26641
7
26643
8
26644
1
26648
4
26655
6
26657
8
26662
1
26662
3
26671
7
26675
1
26684
4
26691
6
26694
5
26694
5
26702
7
26704
1
26704
6
26707
2
26712
7
26719
7
26726
7
26734
2
26743
5
26744
5
26744
1
26745
5
26747
5
26749
7
26756
7
26763
7
26763
3
26767
5
26770
3
26774
4
26779
5
26780
1
26789
8
26790
8
26796
6
26796
4
26800
3
26807
3
26808
4
26812
3
26818
3
26827
6
26830
3
26833
4
26834
7
26834
5
26834
2
26836
2
26845
8
26851
7
26854
7
26854
4
26857
1
26866
6
26870
7
26876
2
26885
5
26887
6
26889
7
26891
5
26895
3
26900
1
26903
8
26911
7
26916
1
26922
3
26924
8
26932
2
26939
7
26943
3
26945
8
26945
3
26951
6
26956
7
26960
1
26961
6
26968
6
26977
7
26978
4
26985
7
26991
1
26998
3
27002
6
27009
6
27010
1
27014
4
27022
5
27022
7
27029
7
27029
5
27029
3
27031
3
27035
3
27043
1
27052
5
27053
8
27058
8
27062
3
27069
3
27073
6
27080
5
27081
5
27086
1
27091
6
27094
3
27096
4
27100
2
27108
7
27112
4
27115
8
27123
7
27123
7
27123
2
27128
2
27133
1
27139
4
27139
3
27145
7
27152
4
27153
2
27160
6
27161
6
27161
8
27168
7
27172
6
27172
5
27177
3
27185
1
27190
4
27193
1
27198
4
27200
7
27201
4
27207
6
27216
6
27221
5
27222
5
27231
4
27235
5
27243
8
27243
5
27243
3
27249
3
27253
7
27254
8
27263
7
27264
6
27273
7
27275
1
27278
4
27279
4
27287
3
27294
8
27300
5
27307
5
27312
6
27313
3
27321
3
27321
7
27323
5
27330
7
27335
3
27338
1
27339
8
27346
7
27351
5
27359
1
27363
4
27368
1
27368
3
27373
5
27373
6
27375
4
27383
6
27384
1
27390
8
27395
4
27401
1
27406
4
27410
3
27419
3
27425
5
27430
3
27432
3
27433
8
27440
8
27444
6
27449
2
27458
3
27462
8
27465
2
27468
3
27476
3
27477
3
27478
5
27482
5
27489
6
27493
8
27499
7
27504
2
27504
8
27510
4
27514
7
27515
8
27523
7
27523
8
27529
1
27538
7
27542
8
27542
6
27542
7
27546
6
27548
8
27554
6
27557
4
27558
5
27567
2
27568
4
27577
2
27577
3
27578
1
27581
3
27585
6
27585
4
27591
3
27592
2
27594
3
27594
4
27601
6
27607
8
27616
2
27616
7
27625
8
27634
2
27637
3
27639
6
27641
2
27644
8
27647
5
27647
4
27647
7
27652
3
27652
6
27661
1
27665
7
27674
1
27674
4
27675
7
27682
3
27682
3
27686
7
27692
3
27697
6
27703
1
27707
2
27714
3
27716
6
27719
5
27724
5
27730
4
27738
3
27743
5
27745
4
27753
5
27753
5
27762
8
27766
6
27769
8
27772
4
27773
5
27782
3
27787
8
27794
6
27802
2
27802
2
27807
2
27809
8
27814
7
27820
1
27827
4
27828
4
27828
4
27831
4
27837
6
27838
3
27841
2
27846
1
27849
6
27853
6
27858
2
27858
4
27866
8
27874
5
27881
4
27883
6
27887
1
27889
5
27891
3
27899
8
27903
7
27908
4
27914
3
27922
2
27928
6
27928
7
27936
1
27945
6
27951
2
27957
8
27966
3
27971
4
27977
8
27983
3
27990
2
27995
8
28003
3
28005
5
28010
7
28016
4
28023
7
28026
8
28026
2
28035
2
28042
2
28042
2
28042
5
28049
7
28058
1
28064
8
28069
1
28072
4
28072
2
28079
4
28080
3
28081
2
28085
7
28086
5
28093
3
28098
5
28100
7
28104
2
28113
3
28120
7
28125
4
28125
6
28128
5
28129
7
28129
4
28131
8
28135
8
28137
3
28144
4
28149
7
28150
2
28151
4
28155
2
28162
2
28162
7
28167
8
28167
7
28168
5
28177
4
28186
8
28186
2
28192
3
28197
6
28206
4
28211
3
28217
2
28218
6
28224
6
28229
2
28238
3
28241
6
28244
8
28248
1
28251
6
28254
4
28261
5
28267
7
28275
4
28281
2
28288
4
28290
2
28293
1
28298
7
28302
5
28307
5
28307
3
28314
4
28320
4
28321
5
28322
2
28327
5
28327
2
28331
5
28340
4
28346
7
28355
4
28359
8
28363
3
28369
8
28373
5
28374
8
28381
5
28387
6
28394
8
28396
7
28404
1
28410
1
28411
1
28414
1
28416
2
28424
7
28426
4
28431
5
28433
2
28440
4
28447
8
28447
7
28448
5
28451
7
28455
8
28463
5
28467
8
28472
4
28475
6
28479
3
28481
4
28489
8
28493
6
28499
2
28503
6
28505
2
28507
6
28508
4
28509
7
28515
2
28519
7
28525
1
28533
8
28534
7
28541
4
28544
8
28549
3
28551
1
28559
4
28562
7
28565
3
28570
7
28572
3
28574
7
28583
5
28591
1
28594
7
28595
6
28596
4
28602
3
28608
1
28610
3
28613
4
28615
6
28624
1
28633
1
28635
7
28639
1
28647
5
28656
4
28662
6
28662
1
28666
4
28672
2
28674
7
28675
1
28676
5
28685
5
28690
1
28691
2
28693
4
28694
4
28700
6
28700
3
28701
1
28708
3
28714
2
28716
7
28723
6
28729
5
28738
4
28739
3
28739
5
28743
6
28752
1
28753
4
28756
6
28761
1
28763
6
28771
6
28772
8
28773
3
28776
6
28784
4
28790
7
28793
7
28793
5
28799
4
28808
5
28816
1
28823
4
28827
2
28832
2
28832
6
28835
6
28839
5
28845
6
28847
5
28848
6
28849
5
28852
7
28852
5
28859
7
28861
4
28861
6
28865
1
28865
2
28874
6
28880
1
28881
3
28888
2
28893
4
28899
2
28906
3
28906
8
28907
6
28914
2
28921
8
28924
2
28932
5
28939
7
28948
6
28950
5
28959
3
28967
5
28971
5
28977
3
28986
2
28987
1
28991
5
28996
2
28996
8
29000
8
29000
7
29004
5
29005
7
29009
2
29010
2
29018
8
29020
2
29023
3
29023
6
29032
4
29040
1
29040
2
29041
2
29048
8
29056
2
29056
3
29057
2
29063
7
29071
5
29079
6
29082
4
29086
7
29089
7
29096
4
29103
3
29106
7
29111
8
29119
7
29119
6
29127
2
29128
4
29133
1
29139
5
29140
2
29145
7
29147
3
29156
5
29163
2
29169
2
29178
6
29179
8
29183
3
29190
5
29190
3
29194
4
29202
2
29209
3
29216
5
29223
4
29232
6
29232
8
29240
3
29247
7
29249
7
29249
7
29255
6
29256
6
29259
5
29265
6
29272
1
29274
4
29277
4
29279
4
29281
8
29288
7
29290
6
29293
8
29293
5
29294
7
29299
2
29299
5
29303
6
29312
6
29320
8
29327
4
29335
7
29342
7
29345
4
29347
5
29355
6
29361
2
29369
4
29369
6
29369
3
29376
6
29379
4
29387
7
29391
4
29391
5
29400
4
29401
7
29406
6
29406
3
29415
6
29422
8
29429
8
29431
1
29435
4
29437
2
29439
6
29444
4
29451
5
29456
1
29458
8
29466
1
29471
6
29479
1
29487
3
29491
8
29492
7
29501
8
29509
3
29510
3
29517
4
29517
7
29520
7
29523
8
29525
7
29529
6
29532
3
29535
3
29544
3
29553
7
29555
5
29559
5
29564
7
29567
4
29567
2
29567
5
29576
1
29582
4
29584
2
29584
2
29584
1
29587
8
29596
4
29599
4
29607
4
29608
8
29610
2
29615
8
29624
5
29633
6
29642
6
29651
3
29653
3
29657
8
29660
5
29668
7
29672
8
29676
5
29676
6
29676
6
29685
2
29693
5
29699
5
29706
2
29708
8
29715
4
29718
7
29720
3
29727
5
29735
1
29740
8
29745
1
29752
8
29760
3
29760
3
29764
6
29765
8
29774
7
29778
5
29778
4
29780
8
29787
6
29791
1
29800
8
29800
8
29802
7
29803
1
29804
6
29804
2
29805
5
29811
3
29816
2
29822
3
29824
2
29825
8
29826
3
29833
3
29834
8
29834
6
29834
7
29842
6
29851
1
29859
2
29860
1
29864
7
29867
6
29869
3
29873
7
29876
1
29885
1
29892
8
29896
2
29896
7
29896
7
29904
3
29905
6
29909
5
29915
7
29922
2
29931
2
29936
3
29937
4
29939
3
29944
7
29945
6
29945
1
29954
3
29959
3
29966
7
29975
8
29981
6
29990
4
29999
6
30002
5
30003
4
30005
4
30014
5
30016
5
30021
6
30027
4
30027
3
30034
6
30042
7
30043
1
30047
4
30049
2
30054
6
30059
7
30062
4
30071
4
30078
8
30079
5
30082
2
30082
2
30086
5
30093
5
30100
3
30102
2
30111
5
30114
7
30118
2
30124
1
30131
6
30134
2
30136
7
30143
7
30147
7
30153
2
30161
4
30166
8
30167
1
30169
1
30169
2
30170
6
30179
6
30187
3
30189
2
30190
8
30191
4
30200
8
30205
1
30208
5
30209
7
30216
6
30218
1
30223
1
30228
4
30236
6
30245
3
30248
3
30252
6
30259
7
30261
5
30262
8
30264
7
30267
1
30276
7
30280
8
30288
4
30294
7
30301
8
30309
3
30316
3
30324
6
30332
7
30336
8
30336
4
30338
6
30339
2
30344
2
30348
8
30354
6
30354
6
30354
7
30362
8
30362
5
30367
2
30367
6
30368
1
30374
6
30375
8
30381
6
30388
1
30393
6
30393
7
30397
4
30406
5
30415
8
30423
7
30428
4
30437
1
30445
4
30447
8
30452
7
30454
2
30460
3
30466
7
30469
5
30478
8
30485
2
30490
4
30493
8
30499
4
30502
7
30511
4
30519
3
30525
1
30527
8
30529
7
30530
1
30538
1
30547
7
30549
6
30550
7
30554
2
30554
4
30555
4
30556
2
30563
5
30566
3
30571
3
30572
2
30575
1
30581
3
30587
8
30593
6
30596
8
30600
4
30607
8
30609
5
30613
1
30615
6
30616
5
30620
5
30621
6
30629
2
30638
6
30642
4
30647
5
30649
4
30656
1
30663
1
30669
3
30676
8
30683
2
30692
8
30697
7
30697
8
30698
7
30699
8
30703
2
30707
5
30712
1
30717
5
30719
7
30723
5
30723
7
30723
2
30729
7
30732
8
30736
5
30737
3
30741
6
30741
6
30748
3
30753
7
30761
6
30769
5
30769
7
30774
5
30775
5
30782
5
30788
2
30793
5
30799
2
30806
4
30810
1
30816
7
30825
4
30831
8
30831
2
30834
1
30837
7
30842
7
30849
7
30858
6
30864
2
30870
6
30872
7
30879
3
30886
6
30894
4
30901
4
30903
4
30910
1
30915
8
30918
7
30923
3
30932
1
30933
6
30934
5
30941
5
30941
2
30946
5
30946
5
30953
7
30961
4
30961
6
30969
8
30973
1
30982
3
30986
4
30987
8
30996
5
30998
6
30998
3
31006
1
31014
6
31016
6
31023
8
31031
3
31033
4
31038
3
31040
6
31047
1
31049
4
31058
5
31061
2
31068
7
31068
4
31071
1
31080
8
31086
4
31093
4
31098
3
31100
5
31103
6
31110
6
31115
4
31115
4
31116
5
31122
5
31129
8
31136
4
31144
8
31147
2
31154
4
31162
2
31171
6
31177
2
31184
4
31189
7
31191
1
31193
2
31195
6
31204
6
31205
1
31212
1
31219
6
31227
3
31234
2
31239
7
31242
3
31250
7
31250
8
31259
5
31266
6
31269
1
31272
2
31281
3
31288
1
31288
1
31290
6
31292
1
31298
8
31300
8
31305
8
31313
1
31317
8
31320
8
31324
7
31324
5
31327
6
31327
6
31329
6
31337
4
31343
3
31347
3
31352
6
31358
1
31359
6
31365
7
31374
5
31381
5
31383
8
31389
8
31392
7
31400
2
31406
4
31414
5
31420
8
31424
2
31428
1
31437
2
31446
8
31452
4
31454
1
31454
4
31459
8
31459
7
31463
4
31466
3
31468
3
31471
3
31474
1
31480
7
31481
4
31483
2
31488
8
31490
5
31493
4
31496
4
31503
8
31510
1
31518
5
31519
6
31519
7
31524
4
31533
1
31542
1
31551
7
31557
6
31558
4
31564
3
31571
8
31580
7
31586
6
31589
4
31590
2
31595
6
31601
3
31607
5
31615
2
31619
8
31621
3
31628
1
31631
7
31636
8
31639
2
31644
6
31648
1
31648
3
31651
6
31655
8
31660
3
31663
7
31670
6
31677
5
31678
1
31686
1
31691
4
31698
1
31698
1
31703
5
31704
6
31712
2
31714
8
31720
8
31726
7
31730
8
31730
5
31738
3
31739
3
31748
1
31753
3
31759
2
31763
5
31766
6
31771
5
31771
2
31778
6
31783
8
31784
6
31788
8
31793
6
31802
4
31804
3
31810
3
31810
8
31814
1
31816
4
31824
5
31826
7
31829
2
31838
5
31847
7
31853
2
31855
5
31857
6
31860
3
31865
4
31871
6
31880
5
31889
2
31894
3
31900
5
31908
2
31911
7
31919
7
31927
1
31935
3
31938
7
31939
6
31939
1
31939
4
31939
4
31944
8
31949
4
31949
3
31951
8
31956
5
31961
5
31966
3
31967
1
31968
4
31969
6
31974
5
31982
3
31991
2
31997
6
31997
1
31998
8
31998
5
31999
6
32003
8
32003
5
32008
6
32009
2
32017
8
32026
6
32026
8
32035
1
32042
5
32044
3
32050
8
32058
7
32065
5
32066
1
32068
6
32077
7
32080
5
32080
8
32082
1
32082
4
32090
4
32090
1
32091
7
32098
4
32106
6
32109
4
32109
5
32118
2
32122
1
32124
7
32131
8
32137
5
32140
4
32140
5
32145
4
32154
5
32159
2
32162
6
32169
3
32170
6
32171
3
32176
5
32183
4
32185
3
32190
3
32192
2
32196
2
32199
5
32205
2
32205
3
32207
3
32207
5
32216
6
32225
4
32227
7
32231
6
32240
1
32247
7
32250
6
32255
7
32263
6
32264
3
32269
8
32274
4
32279
7
32288
7
32293
7
32300
3
32306
8
32309
2
32313
2
32322
2
32325
8
32326
5
32335
4
32337
3
32339
5
32347
1
32349
8
32354
6
32363
6
32369
3
32371
7
32374
3
32383
4
32390
8
32396
8
32399
5
32406
1
32406
1
32406
4
32413
7
32413
7
32414
8
32416
6
32425
2
32425
1
32427
8
32434
3
32439
4
32446
8
32453
8
32460
1
32463
2
32469
1
32472
6
32479
1
32487
4
32487
2
32496
3
32498
1
32498
8
32503
5
32511
3
32516
6
32518
1
32526
2
32527
7
32532
1
32540
6
32542
5
32544
2
32553
4
32558
5
32560
3
32567
1
32576
8
32577
8
32585
2
32594
4
32596
6
32605
7
32606
4
32612
7
32620
3
32622
6
32631
6
32640
1
32647
5
32653
5
32662
7
32670
7
32672
3
32679
1
32687
4
32696
2
32697
4
32699
5
32704
5
32704
4
32705
7
32714
3
32721
4
32730
2
32733
3
32738
7
32745
7
32746
7
32746
3
32755
5
32758
6
32763
3
32763
8
32764
4
32771
5
32773
1
32782
4
32791
6
32800
4
32803
3
32805
2
32814
5
32818
8
32827
4
32835
2
32839
5
32848
8
32850
1
32857
4
32860
3
32865
5
32872
7
32877
1
32884
3
32892
1
32894
3
32896
3
32898
3
32901
4
32904
2
32908
4
32915
6
32924
1
32931
8
32933
7
32937
5
32945
4
32946
7
32955
6
32960
6
32969
2
32970
6
32972
3
32974
2
32981
7
32983
1
32987
4
32995
5
32995
7
33003
3
33008
7
33013
3
33017
1
33023
6
33026
4
33032
5
33032
3
33034
1
33037
5
33041
8
33041
5
33048
6
33054
5
33060
7
33068
2
33073
4
33082
8
33088
2
33094
6
33098
8
33104
6
33112
3
33114
1
33115
5
33119
4
33122
2
33126
8
33129
8
33129
4
33135
4
33143
7
33147
3
33148
1
33152
6
33159
2
33168
6
33170
5
33172
6
33176
3
33182
1
33185
7
33190
3
33197
3
33201
2
33206
1
33207
2
33212
6
33217
4
33220
3
33222
3
33224
7
33232
3
33233
1
33239
2
33241
7
33248
3
33250
7
33253
8
33255
1
33264
7
33265
8
33272
8
33274
6
33281
6
33287
7
33292
3
33298
7
33299
8
33308
3
33317
3
33319
2
33326
5
33328
4
33328
4
33328
3
33328
5
33328
2
33335
4
33340
6
33342
6
33350
4
33359
6
33368
4
33375
1
33378
5
33378
3
33380
5
33385
6
33386
6
33386
5
33393
4
33402
7
33411
7
33415
8
33419
6
33425
6
33428
4
33428
8
33436
7
33445
2
33450
5
33453
1
33458
2
33462
4
33471
8
33475
2
33481
6
33482
4
33487
8
33489
2
33495
7
33499
5
33506
3
33506
4
33507
6
33508
4
33515
3
33519
7
33522
6
33528
5
33531
3
33532
5
33532
8
33541
6
33542
3
33545
4
33552
2
33559
4
33564
1
33567
6
33574
1
33574
1
33583
6
33589
2
33596
4
33600
2
33603
4
33608
4
33616
3
33624
4
33628
3
33629
7
33638
5
33647
4
33650
6
33652
7
33654
6
33663
3
33666
1
33668
4
33677
8
33685
8
33691
8
33693
2
33699
7
33702
6
33705
4
33711
8
33713
2
33719
3
33726
6
33734
8
33739
7
33741
8
33745
6
33750
5
33755
1
33756
8
33759
2
33765
6
33772
6
33773
7
33779
4
33783
1
33784
6
33785
1
33787
5
33787
2
33792
2
33801
6
33801
2
33809
1
33812
4
33814
7
33817
7
33825
7
33828
7
33834
7
33843
5
33846
6
33847
6
33854
3
33857
7
33859
1
33860
6
33865
4
33870
7
33876
1
33881
8
33889
1
33895
8
33896
7
33902
5
33908
8
33912
7
33920
1
33922
5
33924
6
33924
4
33929
4
33930
8
33932
2
33933
3
33935
6
33940
8
33948
6
33953
6
33955
3
33963
2
33968
6
33969
7
33978
8
33979
7
33988
7
33993
3
33993
3
34000
5
34003
7
34005
5
34011
5
34016
7
34021
4
34026
3
34033
4
34036
2
34045
8
34047
2
34053
8
34060
3
34065
6
34071
3
34072
1
34077
8
34081
6
34082
3
34090
4
34096
8
34096
3
34102
8
34105
7
34105
6
34107
1
34115
3
34124
8
34130
5
34137
5
34146
7
34152
4
34152
4
34156
2
34156
5
34164
6
34173
8
34177
3
34186
1
34192
6
34199
1
34203
4
34212
8
34218
4
34223
5
34231
5
34236
6
34238
8
34246
8
34246
4
34249
8
34256
6
34264
6
34271
8
34275
7
34282
7
34289
3
34297
3
34303
7
34306
8
34312
5
34318
7
34318
7
34324
5
34333
1
34339
1
34344
2
34347
1
34352
2
34360
1
34361
6
34362
8
34366
4
34370
5
34371
1
34373
6
34373
6
34382
5
34389
5
34390
1
34397
5
34402
7
34402
6
34408
5
34411
8
34413
8
34420
6
34423
6
34423
4
34425
3
34425
1
34425
5
34433
6
34439
1
34448
2
34449
1
34452
3
34455
3
34462
1
34471
5
34473
3
34474
5
34481
8
34481
5
34489
6
34490
2
34492
3
34495
4
34501
2
34503
3
34509
2
34517
6
34518
3
34522
3
34527
7
34528
7
34533
1
34537
8
34539
4
34546
5
34554
2
34556
1
34559
4
34561
6
34568
6
34568
1
34571
5
34579
2
34584
6
34584
4
34592
2
34598
4
34600
2
34608
5
34617
6
34623
6
34630
1
34639
7
34646
2
34647
6
34656
4
34660
5
34667
6
34675
7
34681
6
34683
8
34692
1
34695
4
34695
8
34703
6
34708
3
34717
8
34718
7
34718
4
34718
4
34718
1
34726
6
34731
3
34734
8
34741
1
34749
5
34753
8
34761
6
34766
2
34769
3
34778
6
34783
7
34785
2
34790
3
34799
4
34802
6
34807
4
34813
7
34813
4
34820
5
34824
7
34828
7
34833
4
34839
2
34843
7
34844
6
34853
6
34860
3
34866
7
34870
1
34879
1
34884
5
34885
2
34892
3
34900
2
34908
6
34909
7
34915
1
34924
3
34926
3
34930
2
34936
3
34937
2
34941
6
34947
5
34953
1
34959
4
34967
3
34968
2
34973
6
34982
4
34984
2
34984
8
34986
1
34992
8
34997
1
34999
6
35008
5
35017
8
35023
2
35031
7
35037
4
35038
4
35039
6
35042
6
35046
7
35050
4
35055
6
35061
5
35062
3
35063
1
35072
3
35078
6
35085
2
35087
1
35095
1
35097
6
35097
1
35097
2
35104
3
35108
6
35109
1
35114
5
35115
4
35119
3
35126
3
35131
3
35140
3
35141
5
35143
3
35148
6
35150
4
35157
1
35160
3
35163
4
35171
1
35175
4
35175
6
35176
5
35177
7
35179
7
35180
3
35181
6
35181
6
35184
3
35184
1
35189
3
35191
7
35200
5
35207
5
35210
6
35211
2
35220
3
35221
8
35222
6
35229
6
35229
6
35229
1
35235
8
35240
1
35249
4
35253
2
35257
6
35261
6
35266
7
35275
6
35277
8
35280
5
35283
4
35287
2
35291
3
35292
6
35301
3
35309
1
35313
7
35316
4
35316
1
35321
2
35328
2
35332
4
35334
5
35336
4
35345
2
35348
3
35357
7
35360
6
35362
1
35367
8
35369
3
35375
2
35382
7
35385
4
35389
1
35394
8
35396
4
35404
6
35411
2
35418
4
35422
4
35426
4
35433
8
35435
2
35443
5
35447
5
35450
7
35451
3
35453
3
35454
8
35460
2
35467
7
35473
6
35478
4
35481
2
35482
1
35485
3
35491
5
35495
2
35495
4
35499
4
35501
5
35507
2
35514
2
35515
5
35522
7
35529
5
35529
6
35536
8
35539
2
35544
5
35550
3
35556
4
35559
1
35560
1
35562
5
35569
6
35578
8
35582
3
35587
6
35596
3
35604
1
35604
6
35605
1
35613
5
35617
6
35617
6
35618
1
35627
5
35630
8
35631
3
35637
1
35640
5
35646
4
35648
5
35650
2
35657
8
35657
5
35658
1
35659
5
35665
7
35667
1
35671
2
35679
3
35684
7
35684
5
35685
6
35688
7
35692
8
35692
1
35696
8
35699
8
35701
1
35710
2
35711
4
35717
4
35718
8
35723
4
35731
8
35737
6
35744
6
35750
7
35750
7
35753
1
35755
2
35764
6
35767
5
35767
5
35767
6
35775
5
35780
2
35786
6
35794
2
35796
6
35804
6
35810
8
35813
4
35814
5
35819
6
35827
1
35829
5
35835
3
35842
2
35851
3
35860
8
35867
1
35870
8
35873
7
35877
5
35883
5
35883
8
35885
8
35886
6
35890
5
35894
3
35894
7
35896
1
35896
5
35902
3
35907
7
35914
2
35914
2
35916
8
35921
6
35926
2
35933
7
35937
2
35946
7
35946
6
35950
6
35952
4
35961
7
35970
2
35970
4
35973
6
35973
5
35981
6
35982
5
35986
8
35990
3
35995
4
36004
4
36009
1
36013
2
36021
1
36024
8
36028
4
36032
8
36040
5
36048
6
36052
5
36055
3
36060
7
36060
3
36060
2
36062
8
36066
7
36067
6
36071
3
36072
8
36075
3
36079
7
36082
2
36082
7
36086
1
36086
8
36088
7
36089
4
36089
5
36092
8
36093
6
36093
1
36099
2
36101
6
36101
1
36108
3
36113
6
36120
2
36127
5
36129
5
36131
7
36131
3
36131
5
36133
4
36133
7
36141
4
36145
2
36154
6
36163
8
36164
4
36169
1
36176
6
36183
7
36185
4
36186
8
36187
1
36193
5
36198
6
36198
7
36205
2
36205
2
36208
2
36212
3
36216
3
36222
4
36225
5
36231
8
36233
3
36242
8
36245
4
36251
7
36258
7
36262
4
36264
2
36272
7
36274
4
36277
7
36277
5
36277
6
36282
7
36288
5
36291
6
36292
5
36300
7
36308
2
36312
1
36315
5
36318
5
36319
5
36327
8
36328
2
36328
1
36335
1
36344
4
36345
4
36354
4
36360
1
36366
2
36371
1
36377
3
36379
8
36380
5
36389
4
36395
3
36399
1
36407
8
36409
6
36413
3
36417
1
36425
7
36432
7
36438
2
36443
8
36447
5
36447
6
36454
4
36456
1
36461
4
36467
1
36469
1
36469
5
36472
4
36473
8
36473
6
36475
4
36481
5
36490
7
36494
3
36494
1
36503
6
36509
1
36516
8
36520
1
36524
2
36527
7
36531
3
36534
6
36539
2
36542
2
36542
5
36543
8
36551
7
36560
6
36562
7
36563
5
36568
6
36573
8
36576
4
36585
4
36589
4
36596
1
36597
1
36597
6
36600
7
36605
1
36613
7
36613
6
36621
1
36625
8
36633
3
36641
2
36649
3
36653
3
36657
3
36659
5
36659
5
36660
7
36660
3
36661
1
36667
8
36670
3
36677
1
36678
5
36683
4
36683
7
36684
7
36688
5
36696
7
36705
4
36712
7
36713
7
36719
1
36724
3
36730
7
36732
8
36737
4
36744
4
36744
4
36752
3
36756
5
36760
5
36764
3
36765
6
36770
2
36771
5
36774
5
36778
3
36782
4
36782
2
36782
5
36785
5
36789
7
36790
8
36792
2
36792
8
36792
5
36801
3
36805
2
36808
1
36811
1
36815
2
36816
6
36824
5
36830
6
36837
6
36839
4
36841
6
36849
7
36851
5
36858
5
36861
1
36861
5
36863
3
36869
1
36870
3
36878
6
36883
2
36889
3
36893
1
36899
2
36906
4
36906
1
36914
1
36922
6
36925
6
36932
7
36936
4
36938
8
36943
7
36945
2
36950
1
36952
8
36958
5
36962
6
36962
7
36965
4
36970
1
36974
8
36982
4
36991
2
36992
1
36997
4
36998
2
37000
7
37007
4
37009
5
37010
4
37015
1
37016
7
37017
1
37021
1
37024
1
37024
6
37031
8
37037
7
37041
7
37043
4
37043
3
37046
1
37055
3
37062
4
37071
1
37073
3
37073
8
37074
4
37074
1
37078
6
37086
7
37091
4
37098
4
37100
5
37101
4
37108
7
37112
4
37116
6
37117
6
37125
6
37130
5
37131
6
37132
5
37137
1
37146
4
37147
8
37151
2
37158
7
37160
5
37162
6
37170
4
37178
2
37184
7
37185
6
37190
4
37191
3
37199
1
37201
5
37202
2
37205
1
37205
4
37206
7
37213
7
37221
6
37224
3
37233
5
37236
5
37244
5
37246
1
37251
6
37257
8
37260
3
37264
4
37269
2
37275
6
37284
3
37285
2
37289
5
37296
2
37304
6
37311
3
37313
7
37322
1
37329
4
37334
3
37343
2
37352
3
37358
2
37365
7
37365
3
37374
8
37375
4
37378
5
37386
1
37394
4
37398
4
37401
3
37404
7
37405
5
37414
7
37421
2
37427
2
37432
7
37438
3
37444
6
37449
8
37453
5
37454
3
37458
7
37464
7
37473
4
37476
8
37480
7
37483
1
37488
2
37496
8
37497
8
37506
2
37508
7
37512
1
37521
3
37527
2
37528
8
37529
1
37534
7
37538
5
37538
4
37543
3
37550
4
37551
6
37556
5
37564
7
37566
5
37574
6
37574
1
37575
1
37582
8
37584
5
37584
5
37584
1
37589
5
37597
6
37598
8
37598
6
37599
1
37604
7
37611
1
37620
7
37622
2
37631
2
37634
4
37637
6
37637
4
37644
5
37644
2
37645
7
37649
4
37652
8
37653
4
37655
3
37660
8
37668
2
37671
8
37674
6
37675
1
37675
6
37676
4
37682
2
37684
7
37687
6
37687
5
37696
5
37704
3
37706
3
37714
7
37715
3
37719
1
37720
6
37720
7
37720
2
37727
2
37727
2
37729
7
37736
4
37744
8
37745
6
37753
4
37758
5
37766
5
37775
4
37781
2
37784
2
37785
5
37793
7
37798
1
37804
4
37808
6
37816
1
37824
3
37824
5
37828
5
37828
5
37835
3
37843
6
37852
6
37855
6
37859
6
37867
1
37875
2
37883
7
37889
4
37892
4
37894
5
37895
5
37900
8
37904
2
37909
8
37915
1
37919
7
37928
5
37930
5
37935
3
37943
2
37946
5
37953
8
37960
5
37968
6
37968
4
37975
7
37977
8
37983
6
37989
1
37991
8
37991
5
37996
8
38002
8
38005
3
38008
8
38016
5
38020
6
38026
3
38026
4
38032
7
38041
7
38043
2
38045
8
38045
3
38045
8
38048
6
38048
3
38048
3
38056
5
38059
3
38067
6
38075
1
38083
2
38085
2
38088
2
38089
5
38090
2
38095
1
38099
2
38099
4
38105
6
38107
2
38107
5
38108
5
38110
3
38115
6
38124
2
38125
1
38126
5
38134
2
38134
2
38136
5
38137
4
38146
7
38155
3
38156
7
38160
7
38166
8
38173
2
38179
2
38186
7
38187
6
38194
2
38196
2
38199
2
38200
2
38207
6
38210
6
38219
4
38221
1
38227
4
38235
1
38237
1
38246
1
38246
7
38252
6
38254
5
38255
5
38262
2
38266
6
38270
5
38278
2
38286
2
38286
4
38289
1
38295
2
38301
6
38310
3
38313
5
38315
3
38322
2
38327
7
38334
8
38341
7
38344
6
38348
1
38353
6
38360
3
38368
5
38369
7
38377
2
38382
6
38383
6
38392
5
38393
5
38394
7
38394
6
38396
6
38404
5
38406
4
38414
5
38416
7
38424
6
38427
7
38429
7
38437
4
38440
6
38447
1
38456
7
38463
1
38467
5
38475
6
38475
2
38482
5
38486
3
38487
6
38488
7
38492
1
38497
4
38503
2
38504
3
38508
5
38511
3
38517
8
38523
1
38531
1
38538
4
38546
1
38554
1
38555
6
38560
5
38563
1
38563
2
38563
7
38566
3
38570
3
38576
5
38580
5
38584
7
38589
3
38590
5
38597
3
38605
7
38606
4
38612
6
38612
4
38616
3
38620
1
38625
7
38625
4
38625
3
38630
1
38637
8
38639
4
38640
5
38643
3
38652
5
38654
6
38660
1
38663
8
38664
7
38668
1
38676
6
38683
8
38684
4
38684
8
38691
5
38691
7
38694
5
38703
5
38707
5
38713
4
38713
2
38722
2
38726
6
38729
4
38735
8
38737
8
38746
8
38752
2
38755
3
38757
4
38760
7
38768
8
38769
6
38769
5
38775
6
38782
6
38790
6
38799
6
38804
2
38808
7
38816
1
38816
3
38820
4
38827
6
38836
4
38836
5
38845
1
38850
2
38852
4
38856
8
38856
4
38861
4
38866
5
38870
4
38875
4
38883
1
38890
1
38898
4
38904
4
38911
4
38913
5
38913
2
38913
8
38921
7
38921
8
38930
5
38936
5
38937
3
38941
5
38941
4
38942
1
38945
4
38949
5
38949
2
38957
2
38966
4
38971
3
38978
8
38981
4
38987
8
38989
4
38992
8
38996
1
39005
1
39006
6
39014
3
39016
1
39023
5
39028
8
39036
3
39045
2
39045
5
39048
4
39055
6
39056
6
39064
4
39064
6
39069
3
39075
3
39075
4
39079
2
39087
4
39088
2
39090
8
39092
6
39099
3
39100
5
39104
3
39109
3
39114
5
39117
6
39117
2
39121
5
39121
4
39125
5
39133
5
39138
8
39138
2
39144
7
39146
6
39152
8
39160
8
39166
8
39172
7
39172
8
39173
1
39173
6
39179
3
39188
3
39188
2
39196
4
39205
8
39205
4
39208
2
39210
4
39214
3
39216
5
39217
6
39223
1
39227
8
39234
4
39242
8
39243
1
39252
7
39257
1
39266
4
39271
6
39273
4
39275
5
39277
8
39279
2
39288
3
39297
1
39301
3
39304
6
39309
8
39311
1
39315
7
39317
7
39318
7
39324
7
39328
1
39333
2
39338
4
39344
7
39347
4
39356
7
39357
3
39365
4
39365
3
39370
4
39374
1
39378
7
39379
4
39383
1
39391
1
39398
6
39404
2
39405
2
39405
7
39411
2
39418
3
39421
6
39427
5
39434
4
39443
3
39452
4
39458
1
39458
2
39465
6
39467
1
39475
4
39484
4
39489
1
39497
4
39499
8
39501
5
39506
3
39508
6
39509
4
39509
4
39512
2
39516
4
39518
1
39525
8
39532
1
39537
7
39544
5
39553
8
39557
5
39564
2
39569
1
39572
8
39573
6
39577
4
39585
3
39585
7
39593
8
39601
4
39608
1
39611
8
39614
8
39615
4
39616
3
39624
7
39631
5
39635
4
39644
4
39647
6
39648
5
39653
1
39655
3
39659
3
39659
7
39659
8
39661
4
39664
7
39665
4
39674
6
39674
1
39678
2
39680
3
39686
4
39691
6
39700
1
39706
5
39711
1
39719
4
39719
7
39728
7
39730
8
39734
2
39741
8
39746
6
39753
1
39759
2
39761
7
39764
4
39768
6
39777
5
39779
4
39784
4
39788
6
39795
6
39804
1
39809
1
39810
1
39813
1
39813
2
39815
1
39820
3
39829
7
39838
6
39845
7
39848
5
39849
1
39855
2
39860
7
39861
6
39862
1
39864
7
39870
8
39878
5
39881
3
39890
4
39891
6
39895
7
39904
3
39906
3
39909
3
39918
1
39918
5
39925
8
39934
4
39941
8
39949
7
39957
5
39965
7
39971
5
39974
8
39979
1
39981
2
39988
7
39996
8
40000
1
40003
7
40007
1
40016
6
40017
8
40022
2
40022
3
40028
2
40029
7
40031
5
40038
5
40043
8
40050
1
40050
2
40058
7
40065
6
40065
6
40066
8
40066
2
40072
4
40074
1
40078
6
40079
6
40088
3
40088
5
40093
8
40096
2
40103
5
40112
8
40119
3
40124
7
40124
1
40133
6
40133
3
40142
3
40148
5
40154
1
40159
4
40166
7
40172
3
40175
4
40177
7
40185
2
40189
7
40191
2
40192
1
40192
2
40200
8
40200
7
40208
6
40210
3
40214
5
40215
8
40215
3
40221
1
40230
6
40231
6
40236
4
40244
2
40250
8
40252
6
40255
4
40262
7
40266
1
40273
2
40280
8
40286
1
40293
5
40293
2
40294
5
40294
5
40299
8
40303
8
40306
1
40309
6
40318
3
40324
8
40331
8
40338
4
40347
4
40351
2
40355
1
40361
2
40362
5
40366
6
40367
5
40375
8
40383
4
40386
2
40395
2
40399
5
40400
7
40406
1
40407
3
40410
7
40410
8
40415
7
40419
6
40426
6
40430
2
40434
5
40437
2
40444
5
40453
4
40460
6
40466
3
40475
6
40482
5
40489
6
40496
6
40499
2
40503
6
40511
3
40520
6
40521
7
40528
6
40534
1
40540
7
40549
2
40555
4
40564
2
40571
4
40574
4
40575
5
40582
1
40591
6
40600
4
40602
1
40611
8
40614
5
40617
8
40619
7
40619
6
40621
7
40625
2
40625
6
40632
7
40639
7
40642
1
40649
6
40650
4
40650
7
40651
8
40657
3
40663
4
40663
8
40666
7
40672
8
40681
5
40687
2
40690
1
40699
1
40703
5
40703
6
40708
3
40714
8
40714
6
40719
1
40720
4
40728
2
40735
5
40741
2
40749
6
40752
1
40755
7
40755
1
40759
6
40764
2
40769
6
40770
5
40770
8
40778
2
40780
1
40781
4
40785
7
40793
5
40799
4
40805
5
40810
4
40817
3
40822
5
40825
3
40828
8
40831
5
40840
2
40843
5
40850
5
40859
5
40865
5
40872
2
40872
8
40873
3
40878
1
40882
1
40882
5
40886
7
40888
8
40895
8
40897
3
40902
6
40907
4
40914
6
40914
6
40922
1
40928
6
40932
7
40939
5
40942
3
40948
6
40954
8
40954
7
40957
2
40957
4
40961
6
40964
8
40967
5
40970
8
40974
1
40978
4
40978
6
40981
5
40986
6
40995
6
41003
3
41003
7
41011
8
41014
2
41022
1
41022
8
41031
7
41037
4
41045
8
41048
8
41048
2
41049
5
41057
5
41059
4
41064
5
41071
1
41075
2
41081
6
41085
3
41087
3
41096
5
41102
3
41109
8
41110
7
41110
4
41111
6
41118
6
41119
7
41126
7
41129
8
41131
6
41132
1
41132
6
41140
3
41142
3
41149
4
41156
2
41157
1
41166
6
41168
6
41174
5
41174
5
41175
3
41184
4
41184
6
41187
5
41192
4
41192
6
41199
3
41205
4
41214
5
41217
8
41225
1
41227
7
41236
8
41237
1
41240
2
41246
6
41248
5
41254
5
41257
6
41265
6
41273
8
41278
2
41279
7
41287
6
41287
5
41296
8
41296
5
41304
6
41313
2
41316
8
41323
7
41324
4
41330
2
41339
4
41344
4
41351
6
41352
7
41359
3
41365
6
41371
8
41375
6
41375
1
41378
7
41387
6
41389
8
41397
1
41406
2
41407
3
41410
6
41411
5
41420
1
41422
4
41431
2
41439
1
41440
2
41445
7
41453
7
41454
4
41457
4
41462
2
41462
8
41471
8
41478
5
41484
2
41490
6
41497
6
41502
8
41511
8
41517
6
41522
6
41526
4
41531
7
41540
5
41546
2
41550
8
41557
4
41559
1
41561
4
41566
8
41567
2
41567
4
41575
3
41579
7
41587
2
41590
7
41594
5
41596
1
41603
3
41611
6
41620
6
41629
2
41638
5
41641
5
41642
8
41648
6
41652
1
41655
1
41661
7
41663
5
41668
8
41670
1
41679
6
41684
4
41692
8
41698
5
41702
1
41704
7
41707
1
41711
2
41714
6
41717
4
41723
7
41729
5
41730
3
41735
2
41736
4
41741
2
41750
7
41752
3
41754
7
41758
7
41766
6
41767
5
41773
8
41778
4
41783
6
41784
1
41792
2
41801
7
41810
7
41814
4
41819
3
41828
2
41837
5
41845
1
41845
7
41848
4
41853
3
41854
1
41863
3
41864
6
41873
6
41876
7
41880
7
41886
2
41889
5
41892
6
41893
1
41898
2
41902
3
41911
8
41914
1
41918
1
41918
6
41918
3
41922
3
41930
4
41938
2
41940
6
41941
2
41943
4
41947
5
41950
2
41954
5
41962
5
41969
7
41975
4
41981
2
41984
7
41988
3
41996
2
42005
1
42012
2
42014
7
42014
7
42019
6
42023
2
42029
6
42029
7
42030
4
42031
4
42040
4
42042
2
42047
5
42047
4
42047
4
42048
3
42057
6
42066
5
42070
4
42072
4
42076
4
42078
7
42078
6
42085
3
42092
5
42098
8
42106
6
42111
8
42119
5
42126
8
42132
3
42140
1
42141
8
42147
2
42156
5
42162
3
42163
2
42163
2
42168
2
42177
7
42178
2
42186
6
42187
1
42196
6
42198
3
42199
7
42207
8
42211
7
42219
6
42225
7
42232
7
42239
4
42247
1
42249
8
42252
5
42259
3
42266
6
42271
2
42273
6
42282
6
42288
4
42289
2
42290
6
42294
3
42299
7
42300
8
42301
5
42309
5
42310
2
42314
8
42323
8
42332
4
42336
1
42340
2
42340
3
42345
7
42346
4
42346
1
42350
4
42356
3
42364
5
42368
1
42375
6
42377
6
42377
5
42386
6
42395
3
42404
1
42406
2
42408
5
42416
5
42422
2
42429
8
42434
4
42437
5
42437
3
42443
2
42449
8
42453
2
42454
1
42454
6
42463
8
42465
7
42468
6
42474
6
42482
4
42485
5
42489
6
42490
4
42497
3
42502
4
42508
8
42509
5
42515
7
42516
4
42518
7
42521
2
42530
2
42534
4
42540
4
42541
8
42543
8
42549
8
42558
5
42564
7
42567
8
42568
6
42576
5
42576
4
42576
8
42585
2
42590
7
42596
3
42598
6
42604
4
42612
5
42613
3
42616
6
42621
8
42622
2
42627
8
42632
7
42639
8
42643
3
42649
2
42650
1
42654
8
42654
8
42658
6
42659
1
42665
5
42672
3
42674
2
42681
3
42681
5
42688
4
42690
5
42693
4
42700
8
42703
7
42709
2
42713
7
42716
5
42716
4
42724
6
42724
4
42724
5
42732
8
42732
1
42734
5
42734
1
42743
4
42747
8
42749
2
42749
4
42754
2
42758
3
42759
8
42761
6
42765
4
42773
5
42774
8
42778
7
42787
6
42791
6
42793
8
42796
6
42804
8
42805
6
42813
8
42819
3
42826
2
42832
8
42833
6
42838
4
42838
7
42839
5
42845
7
42850
7
42856
7
42857
4
42862
7
42871
3
42872
7
42872
2
42878
6
42880
3
42889
5
42896
2
42900
2
42903
6
42904
4
42905
3
42907
6
42911
6
42916
6
42916
6
42919
5
42925
5
42931
5
42938
5
42939
3
42946
2
42948
5
42954
8
42957
5
42960
3
42962
5
42969
1
42978
3
42982
5
42989
6
42994
2
43000
8
43002
6
43004
2
43005
2
43007
1
43015
2
43022
5
43031
5
43034
3
43035
6
43041
8
43046
6
43051
2
43057
2
43060
1
43067
1
43067
1
43067
8
43074
7
43074
1
43083
5
43092
2
43092
2
43100
1
43107
6
43112
5
43119
6
43122
4
43122
6
43124
1
43131
5
43131
5
43136
5
43141
6
43145
8
43145
5
43146
7
43149
6
43156
3
43160
2
43168
2
43175
7
43178
1
43178
6
43178
1
43185
4
43186
5
43193
4
43202
2
43207
7
43214
3
43223
7
43229
8
43236
5
43242
5
43249
7
43251
2
43255
4
43259
5
43266
1
43267
7
43271
7
43280
7
43281
5
43284
4
43289
2
43298
2
43307
4
43308
6
43311
3
43316
3
43322
5
43324
1
43326
6
43327
2
43328
2
43333
4
43333
7
43340
1
43340
8
43343
3
43352
7
43355
3
43359
5
43364
7
43371
1
43375
4
43383
4
43391
8
43398
6
43405
8
43412
4
43421
7
43421
3
43424
6
43428
4
43436
1
43438
8
43444
1
43448
4
43455
6
43456
5
43461
5
43466
8
43466
3
43466
4
43473
1
43476
1
43481
6
43485
8
43486
2
43488
7
43494
8
43497
4
43500
8
43501
4
43501
1
43505
4
43510
7
43515
5
43516
2
43517
8
43518
4
43521
6
43527
6
43534
6
43540
1
43541
6
43550
2
43557
6
43560
6
43562
4
43565
5
43567
7
43569
1
43571
7
43575
5
43583
5
43587
2
43591
6
43591
7
43592
1
43594
8
43597
8
43603
2
43608
6
43608
3
43613
4
43619
3
43620
7
43624
8
43627
7
43634
1
43634
4
43637
6
43642
4
43651
2
43653
6
43662
7
43664
8
43668
7
43673
5
43676
2
43684
5
43685
5
43694
6
43702
5
43705
1
43706
5
43706
7
43713
3
43715
4
43724
7
43724
2
43729
5
43738
2
43746
1
43753
8
43760
6
43760
5
43766
4
43766
3
43771
5
43779
2
43781
4
43790
5
43795
8
43797
1
43806
1
43813
5
43815
4
43816
8
43824
6
43826
7
43826
4
43830
2
43838
5
43842
3
43844
7
43850
2
43857
5
43864
3
43868
2
43874
6
43877
8
43879
7
43883
6
43889
7
43894
3
43897
4
43903
5
43904
7
43909
6
43918
5
43923
7
43926
7
43926
6
43930
6
43935
4
43936
7
43939
4
43944
7
43948
2
43951
8
43958
4
43964
7
43968
8
43974
6
43974
5
43974
4
43975
8
43979
1
43984
3
43984
3
43987
4
43996
8
44002
1
44011
1
44016
6
44016
4
44021
6
44030
8
44037
8
44042
6
44042
5
44043
6
44049
3
44057
8
44064
4
44071
4
44075
2
44078
7
44086
7
44086
6
44089
2
44091
6
44093
1
44093
5
44101
6
44108
7
44116
6
44123
4
44128
1
44133
3
44135
7
44137
4
44143
7
44147
7
44153
1
44158
2
44164
5
44165
8
44174
2
44179
2
44185
6
44189
8
44196
2
44204
3
44206
7
44212
6
44212
2
44217
3
44226
2
44228
6
44234
7
44241
2
44246
8
44250
1
44257
2
44258
7
44264
4
44269
4
44269
3
44277
8
44279
4
44286
8
44289
3
44291
3
44293
4
44301
7
44305
7
44306
4
44308
8
44309
5
44309
6
44311
8
44315
1
44318
2
44322
2
44330
1
44334
8
44338
6
44345
4
44346
2
44352
1
44354
5
44361
6
44364
7
44373
5
44378
7
